[
  {
    "idx": 1,
    "prize": "Microphones",
    "pickedby": "",
    "picked": 0
  },
  {
    "idx": 2,
    "prize": "Acoustic Guitar",
    "pickedby": "",
    "picked": 0
  },
  {
    "idx": 3,
    "prize": "Amplifier",
    "pickedby": "",
    "picked": 0
  },
  {
    "idx": 4,
    "prize": "Beat Box",
    "pickedby": "",
    "picked": 0
  },
  {
    "idx": 5,
    "prize": "Ampli-Speaker",
    "pickedby": "",
    "picked": 0
  },
  {
    "idx": 6,
    "prize": "Microphones",
    "pickedby": "",
    "picked": 0
  },
  {
    "idx": 7,
    "prize": "Acoustic Guitar",
    "pickedby": "",
    "picked": 0
  },
  {
    "idx": 8,
    "prize": "Amplifier",
    "pickedby": "",
    "picked": 0
  },
  {
    "idx": 9,
    "prize": "Beat Box",
    "pickedby": "",
    "picked": 0
  },
  {
    "idx": 10,
    "prize": "Ampli-Speaker",
    "pickedby": "",
    "picked": 0
  }
]