<?xml version="1.0" encoding="utf-8"?>
<!-- Generator: Adobe Illustrator 16.0.0, SVG Export Plug-In . SVG Version: 6.00 Build 0)  -->
<!DOCTYPE svg PUBLIC "-//W3C//DTD SVG 1.1//EN" "http://www.w3.org/Graphics/SVG/1.1/DTD/svg11.dtd">
<svg version="1.1" id="Layer_1" xmlns="http://www.w3.org/2000/svg" xmlns:xlink="http://www.w3.org/1999/xlink" x="0px" y="0px"
	 width="642.695px" height="367.145px" viewBox="0 0 642.695 367.145" enable-background="new 0 0 642.695 367.145"
	 xml:space="preserve">
<path fill="#E46425" d="M162.936,53.755c0.072-0.177-0.131-0.348-0.354-0.365c-0.19-0.015-0.382-0.007-0.573-0.016
	c-0.16-0.008-0.366,0.056-0.443-0.136c-0.058-0.146,0.095-0.254,0.176-0.367c0.391-0.548,0.727-1.123,0.933-1.771
	c0.109-0.34,0.148-0.674-0.085-0.954c-0.252-0.302-0.584-0.1-0.874-0.043c-0.504,0.098-0.939,0.468-1.552,0.408
	c0.457-0.782,0.809-1.563,1.047-2.39c0.127-0.443,0.269-0.904-0.177-1.255c-0.417-0.329-0.82-0.107-1.204,0.096
	c-0.317,0.168-0.62,0.362-0.931,0.542c-0.163,0.094-0.353,0.264-0.521,0.127c-0.209-0.169-0.048-0.397,0.035-0.59
	c0.228-0.527,0.519-1.035,0.681-1.581c0.255-0.858,0.749-1.68,0.527-2.635c-0.167-0.723-0.654-0.891-1.178-0.366
	c-0.625,0.626-1.2,1.302-1.796,1.957c-0.252,0.277-0.492,0.571-0.875,0.672c-0.105-0.201-0.033-0.356,0.015-0.517
	c0.464-1.56,0.917-3.123,1.394-4.679c0.176-0.579,0.295-1.158,0.275-1.764c-0.011-0.316,0.018-0.665-0.339-0.798
	c-0.419-0.158-0.6,0.204-0.785,0.468c-0.692,0.985-1.181,2.08-1.702,3.158c-0.137,0.283-0.227,0.617-0.596,0.779
	c-0.165-0.636-0.012-1.187,0.118-1.74c0.267-1.141,0.702-2.243,0.792-3.422c0.034-0.435,0.24-1.09-0.228-1.229
	c-0.595-0.176-0.701,0.54-0.846,0.953c-0.835,2.387-2.072,4.572-3.319,6.754c-0.083,0.146-0.167,0.291-0.254,0.434
	c-0.063,0.104-0.151,0.227-0.274,0.183c-0.147-0.053-0.193-0.211-0.154-0.362c0.054-0.208,0.123-0.413,0.196-0.615
	c0.278-0.765,0.558-1.529,0.725-2.328c0.041-0.191,0.077-0.394-0.104-0.529c-0.205-0.154-0.418-0.057-0.603,0.052
	c-0.233,0.136-0.389,0.356-0.512,0.59c-0.438,0.824-0.889,1.641-1.219,2.518c-0.506,1.344-0.989,2.697-1.694,3.956
	c-0.146,0.26-0.222,0.596-0.647,0.623c0.141-0.711,0.286-1.405,0.417-2.102c0.139-0.734,0.12-1.479,0.104-2.219
	c-0.009-0.391-0.12-0.825-0.589-0.861c-0.464-0.035-0.615,0.379-0.727,0.757c-0.047,0.16-0.078,0.326-0.112,0.49
	c-0.956,4.541-2.096,9.042-2.939,13.607c-0.043,0.233-0.093,0.466-0.256,0.66c-0.91,1.082-1.106,2.35-0.945,3.706
	c0.059,0.488-0.081,0.865-0.497,1.175c-0.537,0.399-1.069,0.821-1.526,1.306c-0.538,0.572-1.164,0.688-1.89,0.618
	c-1.405-0.134-2.793-0.313-4.151-0.757c-0.99-0.323-2.015-0.632-3.097-0.386c-1.024,0.233-1.484,0.952-1.229,1.963
	c0.243,0.956,0.072,1.167-0.928,0.979c-1.15-0.217-2.281-0.535-3.43-0.761c-2.851-0.562-5.621-1.321-8.128-2.871
	c-0.621-0.384-1.347-0.612-2.079-0.765c-1.93-0.404-3.747-1.127-5.539-1.933c-1.286-0.579-2.599-1.098-3.876-1.693
	c-3.145-1.465-6.247-3.012-9.026-5.12c-1.279-0.971-2.421-2.102-3.573-3.22c-0.259-0.251-0.505-0.54-1.044-0.618
	c0.753,1.373,1.75,2.365,2.715,3.384c0.573,0.528,1.146,1.057,1.719,1.586c0.773,0.609,1.565,1.198,2.182,1.991
	c-0.923-0.425-1.736-1.013-2.519-1.647c-0.567-0.329-1.123-0.672-1.581-1.152c-0.705-0.49-1.405-0.988-2.119-1.466
	c-0.166-0.111-0.402-0.292-0.578-0.097c-0.166,0.184,0.005,0.408,0.127,0.581c0.569,0.808,1.265,1.494,2.055,2.083
	c1.51,1.127,3.024,2.248,4.538,3.371c0.387,0.104,0.625,0.346,0.731,0.785c-0.269-0.109-0.537-0.069-0.719-0.273
	c-0.837-0.342-1.669-0.696-2.512-1.021c-0.536-0.206-1.084-0.378-1.632-0.547c-0.239-0.073-0.495-0.052-0.659,0.159
	c-0.205,0.263,0.044,0.439,0.174,0.624c0.314,0.448,0.795,0.68,1.25,0.944c1.327,0.77,2.749,1.348,4.125,2.023
	c0.118,0.058,0.322,0.083,0.27,0.243c-0.088,0.272-0.247,0.042-0.388,0.016c-0.919-0.173-1.844-0.309-2.781-0.273
	c-0.428,0.016-0.967,0.018-1.05,0.546c-0.083,0.536,0.488,0.581,0.836,0.728c0.992,0.419,2.057,0.654,3.121,1.177
	c-0.393,0.046-0.678,0.073-0.961,0.114c-0.709,0.104-1.431,0.164-2.076,0.525c-0.167,0.094-0.352,0.193-0.316,0.428
	c0.031,0.202,0.15,0.353,0.355,0.41c0.346,0.097,0.688,0.216,1.042,0.273c0.788,0.128,1.583,0.224,2.583,0.36
	c-0.623,0.314-1.059,0.528-1.49,0.754c-0.124,0.065-0.263,0.149-0.244,0.319c0.019,0.169,0.16,0.23,0.305,0.257
	c1.058,0.203,1.948,1.063,3.166,0.693c-0.345,0.856-0.137,1.201,0.743,1.359c0.932,0.168,1.882,0.141,2.883,0.184
	c-0.201,0.323-0.489,0.334-0.7,0.469c-0.279,0.18-0.695,0.346-0.603,0.706c0.105,0.408,0.562,0.515,0.953,0.469
	c0.593-0.07,1.177-0.213,1.765-0.323c0.674-0.126,1.348-0.25,2.189-0.405c-0.746,0.747-1.392,1.273-2.102,1.723
	c-0.283,0.178-0.569,0.368-0.801,0.604c-0.248,0.252-0.489,0.56-0.207,0.945c0.261,0.356,0.586,0.241,0.901,0.09
	c0.69-0.33,1.37-0.683,2.071-0.991c0.202-0.089,0.43-0.31,0.755-0.078c-0.492,0.529-1.044,0.962-1.21,1.688
	c-0.174,0.759,0.215,1.231,0.983,1.082c0.4-0.078,0.786-0.238,1.107-0.493c0.421-0.335,0.621-0.228,0.686,0.276
	c0.076,0.589,0.449,0.832,0.956,0.59c0.733-0.35,1.04-0.104,1.302,0.592c0.27,0.716,0.832,0.787,1.409,0.25
	c0.22-0.204,0.397-0.454,0.71-0.818c0.042,0.461,0.037,0.696,0.092,0.917c0.068,0.279,0.27,0.542,0.552,0.316
	c0.367-0.292,0.692-0.209,1.07-0.101c0.298,0.085,0.627,0.143,0.875-0.128c0.231-0.252,0.324-0.166,0.521,0.076
	c0.391,0.481,0.954,0.619,1.474,0.271c0.396-0.266,0.514-0.091,0.706,0.194c0.217,0.323,0.513,0.692,0.929,0.497
	c0.571-0.267,0.848,0.093,1.16,0.396c0.44,0.43,0.816-0.293,1.324,0.008c0.851,0.504,1.904,0.218,2.86,0.499
	c0.456,0.134,1.102-0.205,1.7,0.016c0.287,0.105,0.515-0.168,0.666-0.439c0.075-0.134,0.199-0.424,0.29-0.336
	c0.554,0.54,1.4,0.239,1.987,0.711c-0.246,0.342-0.572,0.542-0.892,0.741c-3.436,2.129-6.801,4.377-10.454,6.137
	c-0.407,0.196-0.821,0.4-1.133,0.744c-0.389,0.429-0.427,1.181,0.007,1.308c0.706,0.206,0.88,0.546,0.667,1.19
	c-0.014,0.04,0.015,0.093,0.024,0.14c0.251,1.289,1.318,1.731,2.667,1.105c0.521-0.025,0.217,0.313,0.154,0.44
	c-0.272,0.551-0.407,1.111-0.349,1.731c0.109,1.172,1.03,1.766,2.146,1.359c0.313-0.114,0.625-0.228,0.938-0.341
	c0.75-0.563,1.262-1.393,2.165-1.984c-0.111,0.661-0.585,1.096-0.438,1.678c0.153,0.607,0.579,1.015,1.104,1.255
	c1.888,0.864,3.079,0.145,3.678-1.837c0.043,0.826,0.109,1.532,0.317,2.225c0.138,0.459,0.432,0.747,0.86,0.883
	c1.374,0.437,2.189,0.015,2.659-1.372c0.193-0.569,0.345-1.152,0.516-1.729c0.246,0.683,0.323,1.356,0.412,2.028
	c0.097,0.735,0.264,1.467,1.074,1.718c1.353,0.418,2.724,0.126,2.974-1.586c0.022-0.151-0.02-0.337,0.175-0.467
	c0.072,0.042,0.156,0.079,0.228,0.133c1.407,1.069,2.276,1.042,3.593-0.152c0.232-0.211,0.335-0.129,0.519,0.042
	c0.603,0.56,1.288,0.904,2.146,0.722c0.165-0.035,0.314-0.025,0.475,0.078c1.136,0.737,2.247,0.544,2.895-0.592
	c0.229-0.402,0.38-0.338,0.705-0.233c1.109,0.358,2.037,0.022,2.465-0.857c0.263-0.54,0.248-1.103,0.183-1.686
	c-0.084-0.751-0.524-1.408-0.539-2.171c-0.004-0.003-0.008-0.006-0.012-0.009c-0.006-0.008-0.012-0.015-0.018-0.023
	c-0.02-0.004-0.04-0.009-0.06-0.013c0.013-0.006,0.033-0.02,0.037-0.016c0.009,0.008,0.016,0.02,0.023,0.029
	c0.009,0.002,0.018,0.004,0.027,0.006c0,0.009,0.002,0.017,0.002,0.026c0.485,0.371,0.946,0.779,1.461,1.103
	c0.714,0.449,1.453,0.212,1.75-0.544c0.115-0.293,0.285-0.404,0.567-0.454c0.657-0.115,0.87-0.565,0.919-1.184
	c0.043-0.563-0.263-0.982-0.526-1.43c1.729-0.486,2.112-1.24,1.45-2.859c-0.107-0.261,0.039-0.328,0.151-0.473
	c0.534-0.689,0.368-1.336-0.453-1.629c-1.013-0.361-2.029-0.724-3.066-1.002c-3.352-0.901-6.637-2.007-9.92-3.123
	c-0.816-0.277-1.375-0.932-1.954-1.529c-0.247-0.255-0.227-0.403,0.209-0.552c0.698-0.238,1.622-0.358,1.432-1.602
	c0.713,0.626,1.39,0.944,2.165,1.084c0.421,0.076,0.715-0.359,1.09-0.24c0.56,0.176,0.971-0.03,1.379-0.363
	c0.157-0.128,0.327-0.32,0.57-0.163c0.611,0.397,1.139,0.103,1.675-0.186c0.222-0.119,0.417-0.386,0.707-0.251
	c0.513,0.237,0.803-0.041,1.078-0.407c0.307-0.408,0.662-0.651,1.214-0.439c0.682,0.262,1.197-0.096,1.677-0.526
	c0.317-0.284,0.589-0.59,1.105-0.551c0.365,0.027,0.492-0.303,0.475-0.66c-0.01-0.228-0.22-0.437-0.07-0.681
	c1.662,0.419,1.679,0.417,1.813-1.325c0.029-0.371,0.222-0.422,0.501-0.455c0.609-0.072,0.847-0.387,0.627-0.989
	c-0.166-0.454-0.099-0.65,0.461-0.531c0.386,0.083,0.851,0.11,1.072-0.35c0.206-0.428-0.054-0.753-0.289-1.107
	c-0.405-0.614-1.119-0.819-1.775-1.375c0.771,0.062,1.365,0.124,1.96,0.15c0.303,0.014,0.718,0.234,0.859-0.226
	c0.13-0.421-0.126-0.768-0.472-0.959c-0.372-0.206-0.795-0.324-1.201-0.465c-0.56-0.194-1.038-0.507-1.576-0.937
	c0.78-0.189,1.447-0.351,2.116-0.513c0.411-0.1,0.584-0.381,0.602-0.784c0.018-0.426-0.3-0.549-0.605-0.702
	c-0.225-0.111-0.529,0.008-0.724-0.264c0.465-0.458,1.017-0.828,1.319-1.412c0.345-0.665,0.086-1.216-0.441-1.684
	C162.876,55.674,162.597,54.591,162.936,53.755z"/>
<path fill="#E46425" d="M51.844,338.905c-0.018-0.101-0.158-0.118-0.262-0.063c-0.089,0.047-0.172,0.105-0.261,0.155
	c-0.073,0.042-0.147,0.129-0.236,0.065c-0.067-0.05-0.03-0.142-0.026-0.215c0.019-0.354,0.005-0.708-0.087-1.056
	c-0.048-0.183-0.125-0.344-0.31-0.402c-0.198-0.063-0.289,0.122-0.402,0.229c-0.197,0.187-0.286,0.476-0.577,0.624
	c-0.019-0.479-0.083-0.928-0.212-1.364c-0.069-0.232-0.138-0.479-0.436-0.511c-0.28-0.028-0.396,0.186-0.51,0.386
	c-0.094,0.165-0.173,0.338-0.261,0.506c-0.045,0.089-0.083,0.219-0.196,0.206c-0.142-0.017-0.135-0.164-0.152-0.272
	c-0.048-0.302-0.063-0.61-0.146-0.9c-0.13-0.455-0.144-0.963-0.515-1.325c-0.28-0.274-0.545-0.212-0.629,0.171
	c-0.102,0.458-0.166,0.924-0.245,1.387c-0.034,0.194-0.058,0.394-0.2,0.549c-0.104-0.062-0.116-0.15-0.141-0.235
	c-0.236-0.828-0.479-1.655-0.708-2.485c-0.086-0.309-0.198-0.601-0.38-0.864c-0.094-0.139-0.181-0.302-0.378-0.261
	c-0.232,0.05-0.21,0.263-0.218,0.433c-0.028,0.637,0.064,1.265,0.139,1.894c0.02,0.165,0.074,0.342-0.044,0.519
	c-0.254-0.237-0.343-0.526-0.442-0.812c-0.205-0.585-0.325-1.201-0.62-1.753c-0.108-0.204-0.203-0.556-0.451-0.483
	c-0.316,0.091-0.159,0.439-0.106,0.666c0.306,1.304,0.375,2.631,0.439,3.959c0.004,0.089,0.008,0.178,0.01,0.266
	c0.001,0.064-0.003,0.145-0.07,0.16c-0.081,0.018-0.146-0.039-0.171-0.118c-0.035-0.108-0.063-0.22-0.087-0.33
	c-0.093-0.421-0.186-0.842-0.339-1.246c-0.036-0.097-0.077-0.196-0.197-0.206c-0.135-0.01-0.203,0.094-0.254,0.194
	c-0.065,0.128-0.072,0.27-0.061,0.409c0.04,0.492,0.07,0.984,0.172,1.471c0.156,0.744,0.326,1.486,0.369,2.248
	c0.009,0.158,0.071,0.33-0.112,0.463c-0.139-0.356-0.271-0.708-0.411-1.057c-0.147-0.368-0.367-0.694-0.585-1.021
	c-0.115-0.172-0.288-0.335-0.508-0.217c-0.217,0.116-0.167,0.344-0.109,0.544c0.024,0.085,0.058,0.168,0.089,0.251
	c0.865,2.299,1.636,4.632,2.559,6.91c0.047,0.116,0.091,0.234,0.073,0.368c-0.098,0.741,0.175,1.362,0.632,1.923
	c0.165,0.201,0.21,0.408,0.112,0.666c-0.126,0.33-0.244,0.67-0.31,1.017c-0.077,0.408-0.324,0.639-0.668,0.813
	c-0.665,0.34-1.336,0.654-2.068,0.843c-0.534,0.137-1.08,0.291-1.492,0.708c-0.391,0.396-0.392,0.848,0.009,1.227
	c0.381,0.357,0.365,0.5-0.136,0.7c-0.575,0.23-1.17,0.41-1.747,0.638c-1.433,0.56-2.885,1.009-4.445,1.029
	c-0.386,0.005-0.776,0.109-1.146,0.25c-0.977,0.367-1.993,0.563-3.022,0.711c-0.738,0.108-1.472,0.25-2.212,0.349
	c-1.82,0.239-3.645,0.433-5.485,0.281c-0.847-0.069-1.679-0.25-2.511-0.422c-0.187-0.038-0.379-0.097-0.642,0.021
	c0.727,0.397,1.454,0.559,2.175,0.738c0.406,0.071,0.812,0.146,1.218,0.219c0.519,0.053,1.04,0.09,1.541,0.269
	c-0.533,0.072-1.063,0.041-1.593-0.02c-0.346,0.015-0.692,0.02-1.034-0.064c-0.454-0.019-0.908-0.042-1.363-0.052
	c-0.105-0.002-0.263-0.017-0.286,0.121c-0.021,0.129,0.118,0.181,0.222,0.224c0.484,0.198,0.99,0.309,1.51,0.346
	c0.995,0.073,1.989,0.144,2.985,0.215c0.203-0.063,0.377-0.023,0.549,0.143c-0.151,0.027-0.259,0.122-0.399,0.082
	c-0.471,0.086-0.943,0.165-1.412,0.26c-0.298,0.061-0.591,0.14-0.884,0.221c-0.127,0.035-0.235,0.117-0.249,0.259
	c-0.017,0.175,0.145,0.183,0.255,0.229c0.268,0.11,0.549,0.077,0.827,0.065c0.812-0.033,1.611-0.18,2.417-0.27
	c0.069-0.009,0.168-0.056,0.19,0.03c0.038,0.146-0.098,0.089-0.168,0.118c-0.46,0.184-0.911,0.386-1.32,0.669
	c-0.186,0.128-0.426,0.283-0.313,0.542c0.115,0.264,0.383,0.121,0.58,0.087c0.562-0.095,1.104-0.293,1.729-0.361
	c-0.163,0.133-0.282,0.226-0.397,0.323c-0.287,0.249-0.592,0.48-0.777,0.825c-0.048,0.089-0.102,0.188-0.02,0.281
	c0.072,0.081,0.167,0.114,0.275,0.081c0.182-0.055,0.369-0.1,0.542-0.174c0.388-0.167,0.771-0.351,1.256-0.573
	c-0.189,0.317-0.322,0.537-0.451,0.761c-0.037,0.063-0.075,0.142-0.018,0.211c0.057,0.071,0.137,0.059,0.209,0.028
	c0.53-0.21,1.172-0.079,1.61-0.591c0.089,0.479,0.281,0.575,0.718,0.396c0.464-0.189,0.88-0.473,1.339-0.737
	c0.002,0.201-0.123,0.288-0.179,0.407c-0.074,0.16-0.212,0.354-0.068,0.487c0.163,0.152,0.397,0.07,0.559-0.063
	c0.245-0.199,0.464-0.431,0.696-0.646c0.265-0.248,0.53-0.495,0.862-0.804c-0.121,0.546-0.259,0.965-0.448,1.367
	c-0.076,0.159-0.149,0.325-0.186,0.496c-0.039,0.185-0.059,0.391,0.177,0.481c0.217,0.084,0.33-0.06,0.428-0.216
	c0.214-0.344,0.417-0.695,0.643-1.032c0.064-0.097,0.104-0.261,0.314-0.249c-0.069,0.375-0.192,0.726-0.06,1.097
	c0.138,0.39,0.447,0.489,0.747,0.203c0.157-0.147,0.283-0.329,0.354-0.534c0.092-0.27,0.212-0.277,0.385-0.071
	c0.202,0.24,0.437,0.244,0.594-0.01c0.228-0.363,0.435-0.342,0.75-0.104c0.324,0.242,0.595,0.114,0.7-0.289
	c0.04-0.154,0.048-0.315,0.084-0.567c0.15,0.194,0.214,0.301,0.301,0.384c0.11,0.104,0.274,0.165,0.336-0.017
	c0.081-0.234,0.25-0.29,0.449-0.35c0.157-0.046,0.32-0.114,0.354-0.307c0.032-0.179,0.098-0.165,0.254-0.113
	c0.312,0.104,0.602,0.005,0.735-0.299c0.102-0.23,0.203-0.188,0.37-0.113c0.188,0.082,0.426,0.163,0.556-0.042
	c0.179-0.282,0.405-0.2,0.631-0.153c0.319,0.067,0.281-0.363,0.593-0.373c0.523-0.017,0.912-0.443,1.419-0.591
	c0.242-0.069,0.433-0.405,0.763-0.477c0.158-0.035,0.182-0.223,0.172-0.387c-0.005-0.081-0.032-0.246,0.034-0.231
	c0.401,0.083,0.693-0.291,1.089-0.248c-0.012,0.223-0.101,0.405-0.187,0.585c-0.928,1.928-1.791,3.889-2.921,5.714
	c-0.126,0.202-0.253,0.411-0.294,0.653c-0.052,0.303,0.146,0.647,0.375,0.582c0.374-0.108,0.548-0.007,0.636,0.343
	c0.005,0.021,0.033,0.036,0.051,0.055c0.479,0.504,1.081,0.398,1.504-0.266c0.226-0.158,0.187,0.079,0.195,0.152
	c0.035,0.323,0.134,0.612,0.336,0.872c0.382,0.492,0.962,0.495,1.345-0.004c0.107-0.14,0.214-0.278,0.322-0.419
	c0.175-0.465,0.167-0.979,0.402-1.501c0.139,0.326,0.051,0.655,0.282,0.873c0.241,0.229,0.546,0.288,0.85,0.247
	c1.088-0.151,1.416-0.812,1.119-1.867c0.255,0.356,0.484,0.653,0.775,0.903c0.192,0.165,0.405,0.21,0.635,0.149
	c0.738-0.195,0.982-0.615,0.797-1.368c-0.076-0.311-0.174-0.612-0.261-0.919c0.303,0.234,0.529,0.514,0.76,0.788
	c0.252,0.3,0.535,0.579,0.968,0.462c0.723-0.198,1.251-0.72,0.876-1.556c-0.033-0.072-0.104-0.145-0.054-0.258
	c0.044-0.002,0.092-0.009,0.139-0.006c0.932,0.077,1.313-0.182,1.561-1.09c0.043-0.16,0.113-0.153,0.244-0.129
	c0.428,0.079,0.832,0.038,1.164-0.288c0.063-0.063,0.133-0.102,0.234-0.102c0.717,0.008,1.158-0.396,1.124-1.087
	c-0.012-0.245,0.074-0.26,0.249-0.305c0.597-0.156,0.915-0.57,0.857-1.084c-0.036-0.316-0.203-0.563-0.398-0.805
	c-0.251-0.313-0.635-0.479-0.858-0.816c-0.003-0.001-0.005,0-0.008-0.001c-0.005-0.002-0.01-0.003-0.014-0.005
	c-0.01,0.004-0.021,0.007-0.031,0.012c0.004-0.007,0.009-0.019,0.012-0.019c0.006,0.002,0.012,0.004,0.019,0.007
	c0.004-0.002,0.009-0.003,0.014-0.005c0.002,0.003,0.006,0.007,0.008,0.011c0.322,0.027,0.644,0.079,0.966,0.077
	c0.447-0.003,0.708-0.319,0.626-0.741c-0.032-0.163,0.012-0.262,0.124-0.364c0.261-0.237,0.228-0.499,0.073-0.789
	c-0.141-0.265-0.396-0.363-0.641-0.488c0.634-0.709,0.59-1.154-0.166-1.688c-0.122-0.086-0.076-0.157-0.067-0.254
	c0.042-0.46-0.215-0.701-0.666-0.599c-0.555,0.127-1.112,0.254-1.654,0.425c-1.752,0.551-3.534,0.992-5.316,1.428
	c-0.443,0.107-0.879-0.025-1.307-0.127c-0.183-0.044-0.216-0.116-0.064-0.306c0.244-0.307,0.623-0.622,0.184-1.123
	c0.497,0.077,0.889,0.025,1.274-0.131c0.21-0.086,0.218-0.364,0.418-0.418c0.301-0.08,0.425-0.289,0.513-0.556
	c0.034-0.101,0.055-0.234,0.208-0.233c0.385,0.003,0.537-0.278,0.695-0.561c0.065-0.115,0.076-0.291,0.244-0.313
	c0.296-0.041,0.347-0.247,0.366-0.489c0.021-0.27,0.11-0.479,0.417-0.541c0.379-0.077,0.507-0.384,0.599-0.712
	c0.061-0.217,0.095-0.433,0.337-0.562c0.17-0.092,0.133-0.274,0.024-0.43c-0.069-0.099-0.223-0.133-0.225-0.284
	c0.861-0.285,0.869-0.291,0.433-1.106c-0.093-0.174-0.021-0.251,0.094-0.347c0.251-0.204,0.268-0.414-0.001-0.618
	c-0.204-0.156-0.229-0.264,0.054-0.369c0.196-0.071,0.412-0.191,0.379-0.46c-0.029-0.25-0.238-0.32-0.443-0.412
	c-0.355-0.159-0.732-0.048-1.184-0.108c0.361-0.191,0.644-0.334,0.917-0.491c0.139-0.079,0.387-0.1,0.319-0.345
	c-0.062-0.226-0.275-0.307-0.483-0.294c-0.225,0.013-0.447,0.081-0.668,0.134c-0.305,0.072-0.608,0.068-0.97,0.029
	c0.294-0.307,0.546-0.568,0.799-0.831c0.155-0.161,0.152-0.336,0.046-0.521c-0.113-0.195-0.29-0.16-0.47-0.142
	c-0.132,0.015-0.234,0.153-0.398,0.088c0.077-0.338,0.219-0.659,0.188-1.006c-0.035-0.395-0.308-0.566-0.676-0.626
	C52.363,339.778,51.93,339.374,51.844,338.905z"/>
<path fill="#E46425" d="M170.82,249.383c-0.011-0.06-0.095-0.07-0.158-0.037c-0.054,0.028-0.104,0.063-0.157,0.094
	c-0.044,0.025-0.089,0.078-0.143,0.039c-0.041-0.028-0.018-0.084-0.016-0.129c0.011-0.215,0.003-0.428-0.053-0.638
	c-0.029-0.11-0.076-0.207-0.187-0.242c-0.12-0.038-0.175,0.073-0.243,0.138c-0.119,0.113-0.172,0.287-0.348,0.377
	c-0.011-0.289-0.05-0.56-0.128-0.822c-0.042-0.141-0.083-0.29-0.263-0.309c-0.169-0.018-0.239,0.111-0.308,0.232
	c-0.057,0.1-0.104,0.204-0.158,0.305c-0.027,0.055-0.05,0.133-0.118,0.125c-0.085-0.011-0.082-0.1-0.092-0.164
	c-0.029-0.183-0.038-0.369-0.088-0.545c-0.079-0.273-0.087-0.58-0.311-0.8c-0.169-0.166-0.33-0.128-0.38,0.104
	c-0.062,0.275-0.1,0.558-0.148,0.836c-0.021,0.117-0.035,0.236-0.121,0.33c-0.063-0.035-0.07-0.09-0.085-0.142
	c-0.143-0.5-0.289-0.999-0.427-1.5c-0.052-0.187-0.12-0.362-0.229-0.522c-0.057-0.082-0.109-0.182-0.228-0.156
	c-0.14,0.029-0.127,0.158-0.131,0.261c-0.017,0.386,0.039,0.765,0.083,1.144c0.012,0.101,0.045,0.205-0.027,0.313
	c-0.153-0.143-0.207-0.316-0.267-0.488c-0.124-0.354-0.196-0.726-0.374-1.059c-0.065-0.123-0.123-0.336-0.272-0.293
	c-0.191,0.057-0.096,0.268-0.064,0.402c0.185,0.787,0.227,1.588,0.266,2.39c0.002,0.054,0.004,0.106,0.006,0.161
	c0,0.038-0.002,0.087-0.042,0.097c-0.049,0.011-0.088-0.024-0.104-0.071c-0.021-0.064-0.038-0.133-0.053-0.199
	c-0.057-0.254-0.112-0.508-0.205-0.752c-0.022-0.06-0.047-0.118-0.119-0.125c-0.082-0.006-0.123,0.058-0.153,0.117
	c-0.039,0.078-0.043,0.164-0.037,0.248c0.023,0.297,0.042,0.594,0.104,0.887c0.094,0.449,0.196,0.897,0.222,1.357
	c0.005,0.096,0.043,0.199-0.067,0.279c-0.084-0.216-0.164-0.428-0.248-0.639c-0.089-0.223-0.222-0.42-0.354-0.615
	c-0.069-0.104-0.174-0.202-0.307-0.131c-0.131,0.07-0.101,0.207-0.065,0.328c0.015,0.052,0.035,0.102,0.054,0.15
	c0.522,1.389,0.988,2.797,1.544,4.172c0.028,0.07,0.055,0.143,0.044,0.223c-0.059,0.447,0.105,0.822,0.382,1.16
	c0.1,0.121,0.126,0.246,0.068,0.402c-0.076,0.199-0.147,0.404-0.188,0.613c-0.046,0.246-0.196,0.385-0.403,0.49
	c-0.401,0.205-0.806,0.396-1.249,0.51c-0.322,0.082-0.652,0.176-0.901,0.428c-0.236,0.238-0.236,0.512,0.006,0.74
	c0.23,0.216,0.22,0.302-0.082,0.423c-0.347,0.14-0.706,0.247-1.055,0.384c-0.865,0.338-1.742,0.609-2.684,0.622
	c-0.233,0.003-0.468,0.066-0.692,0.151c-0.589,0.222-1.203,0.339-1.824,0.429c-0.446,0.065-0.889,0.151-1.336,0.21
	c-1.099,0.146-2.2,0.262-3.311,0.172c-0.511-0.044-1.014-0.152-1.516-0.256c-0.113-0.023-0.229-0.059-0.388,0.014
	c0.439,0.239,0.877,0.336,1.313,0.444c0.245,0.044,0.49,0.089,0.736,0.134c0.313,0.03,0.627,0.053,0.93,0.161
	c-0.322,0.043-0.642,0.024-0.962-0.012c-0.209,0.009-0.418,0.012-0.624-0.039c-0.274-0.013-0.548-0.024-0.823-0.031
	c-0.064-0.001-0.159-0.011-0.173,0.073c-0.013,0.077,0.072,0.107,0.134,0.135c0.292,0.119,0.598,0.186,0.912,0.208
	c0.6,0.046,1.201,0.087,1.802,0.13c0.123-0.037,0.228-0.015,0.332,0.086c-0.091,0.018-0.156,0.073-0.241,0.051
	c-0.284,0.052-0.569,0.1-0.852,0.156c-0.18,0.035-0.357,0.084-0.534,0.133c-0.077,0.021-0.142,0.069-0.15,0.156
	c-0.01,0.104,0.087,0.109,0.154,0.137c0.162,0.066,0.331,0.048,0.499,0.041c0.49-0.021,0.972-0.108,1.458-0.164
	c0.042-0.004,0.102-0.032,0.115,0.02c0.023,0.09-0.059,0.055-0.102,0.071c-0.278,0.11-0.55,0.233-0.797,0.403
	c-0.112,0.078-0.257,0.172-0.189,0.328c0.07,0.158,0.231,0.072,0.35,0.053c0.339-0.059,0.667-0.178,1.043-0.219
	c-0.098,0.08-0.17,0.135-0.239,0.194c-0.173,0.149-0.358,0.29-0.469,0.498c-0.029,0.054-0.062,0.113-0.012,0.17
	c0.043,0.05,0.101,0.069,0.167,0.05c0.11-0.033,0.223-0.061,0.327-0.104c0.234-0.101,0.465-0.211,0.758-0.347
	c-0.114,0.191-0.194,0.324-0.272,0.459c-0.022,0.039-0.045,0.086-0.011,0.127c0.034,0.043,0.083,0.035,0.126,0.019
	c0.32-0.127,0.707-0.048,0.972-0.356c0.054,0.289,0.169,0.348,0.434,0.238c0.28-0.115,0.531-0.285,0.808-0.445
	c0.001,0.121-0.074,0.174-0.108,0.246c-0.044,0.098-0.128,0.213-0.042,0.295c0.098,0.092,0.24,0.043,0.337-0.037
	c0.148-0.121,0.28-0.26,0.42-0.391c0.16-0.15,0.32-0.3,0.521-0.484c-0.073,0.328-0.156,0.582-0.271,0.824
	c-0.045,0.098-0.09,0.196-0.112,0.301c-0.023,0.111-0.036,0.234,0.107,0.291c0.131,0.051,0.199-0.036,0.258-0.131
	c0.129-0.207,0.252-0.42,0.388-0.623c0.039-0.06,0.063-0.157,0.19-0.15c-0.042,0.227-0.116,0.438-0.037,0.662
	c0.083,0.234,0.27,0.296,0.451,0.123c0.095-0.09,0.171-0.199,0.214-0.323c0.056-0.162,0.128-0.168,0.232-0.043
	c0.122,0.146,0.264,0.147,0.358-0.006c0.138-0.22,0.263-0.206,0.453-0.063c0.195,0.146,0.359,0.069,0.422-0.175
	c0.024-0.093,0.029-0.19,0.051-0.342c0.09,0.116,0.129,0.181,0.182,0.229c0.066,0.064,0.166,0.101,0.203-0.009
	c0.049-0.143,0.151-0.176,0.271-0.211c0.095-0.028,0.193-0.069,0.213-0.185c0.019-0.108,0.059-0.102,0.153-0.069
	c0.188,0.063,0.363,0.003,0.444-0.181c0.062-0.139,0.123-0.112,0.224-0.068c0.114,0.051,0.257,0.1,0.335-0.025
	c0.108-0.17,0.245-0.119,0.381-0.092c0.193,0.04,0.17-0.22,0.358-0.226c0.316-0.011,0.551-0.269,0.856-0.356
	c0.146-0.041,0.262-0.244,0.461-0.287c0.095-0.021,0.11-0.135,0.104-0.232c-0.003-0.049-0.02-0.148,0.02-0.141
	c0.242,0.049,0.418-0.177,0.658-0.149c-0.007,0.134-0.061,0.244-0.113,0.353c-0.561,1.164-1.081,2.348-1.764,3.449
	c-0.076,0.122-0.152,0.248-0.178,0.395c-0.031,0.184,0.088,0.393,0.227,0.353c0.226-0.065,0.331-0.004,0.384,0.207
	c0.003,0.013,0.021,0.021,0.031,0.033c0.289,0.304,0.653,0.239,0.908-0.16c0.137-0.097,0.113,0.047,0.118,0.092
	c0.021,0.195,0.081,0.37,0.203,0.526c0.231,0.298,0.581,0.299,0.812-0.002c0.065-0.084,0.13-0.17,0.194-0.254
	c0.105-0.279,0.101-0.592,0.243-0.905c0.084,0.196,0.031,0.396,0.17,0.526c0.146,0.138,0.33,0.175,0.513,0.149
	c0.657-0.092,0.855-0.489,0.676-1.128c0.154,0.217,0.292,0.395,0.468,0.546c0.116,0.101,0.245,0.126,0.383,0.091
	c0.446-0.119,0.593-0.371,0.481-0.826c-0.046-0.188-0.105-0.369-0.158-0.556c0.183,0.144,0.319,0.312,0.459,0.476
	c0.152,0.183,0.323,0.352,0.584,0.279c0.436-0.119,0.755-0.434,0.529-0.938c-0.02-0.044-0.063-0.087-0.033-0.155
	c0.026-0.002,0.056-0.006,0.084-0.004c0.563,0.047,0.792-0.108,0.942-0.658c0.026-0.097,0.068-0.093,0.147-0.077
	c0.259,0.047,0.502,0.022,0.703-0.175c0.038-0.036,0.081-0.061,0.142-0.061c0.433,0.004,0.699-0.238,0.678-0.656
	c-0.007-0.147,0.044-0.156,0.15-0.185c0.36-0.094,0.552-0.344,0.517-0.653c-0.021-0.19-0.123-0.34-0.24-0.485
	c-0.151-0.188-0.383-0.289-0.518-0.492c-0.001-0.002-0.003,0-0.004-0.002c-0.003,0-0.006-0.002-0.009-0.002
	c-0.006,0.002-0.012,0.004-0.019,0.006c0.002-0.004,0.005-0.011,0.007-0.011c0.004,0.001,0.007,0.003,0.011,0.005
	c0.002-0.002,0.006-0.002,0.008-0.004c0.001,0.002,0.003,0.004,0.005,0.008c0.195,0.017,0.389,0.047,0.583,0.047
	c0.27-0.002,0.428-0.193,0.378-0.448c-0.019-0.099,0.007-0.157,0.075-0.22c0.157-0.145,0.137-0.301,0.044-0.478
	c-0.085-0.159-0.239-0.22-0.387-0.295c0.382-0.429,0.356-0.696-0.101-1.021c-0.073-0.051-0.045-0.095-0.04-0.152
	c0.025-0.277-0.13-0.424-0.402-0.361c-0.335,0.077-0.671,0.153-0.999,0.258c-1.058,0.332-2.133,0.598-3.209,0.86
	c-0.268,0.065-0.531-0.015-0.789-0.076c-0.111-0.026-0.13-0.069-0.039-0.185c0.147-0.186,0.375-0.377,0.111-0.678
	c0.3,0.045,0.537,0.016,0.769-0.08c0.127-0.051,0.132-0.219,0.253-0.252c0.181-0.049,0.256-0.174,0.309-0.334
	c0.021-0.063,0.033-0.144,0.126-0.143c0.233,0.002,0.324-0.168,0.419-0.338c0.04-0.068,0.046-0.176,0.147-0.188
	c0.179-0.025,0.209-0.149,0.221-0.297c0.012-0.162,0.066-0.289,0.251-0.326c0.229-0.047,0.306-0.231,0.361-0.43
	c0.037-0.131,0.058-0.261,0.204-0.339c0.103-0.056,0.081-0.166,0.014-0.259c-0.042-0.061-0.134-0.081-0.136-0.172
	c0.52-0.172,0.524-0.176,0.262-0.67c-0.056-0.104-0.013-0.15,0.057-0.207c0.152-0.125,0.162-0.25,0-0.375
	c-0.123-0.094-0.138-0.158,0.033-0.223c0.119-0.043,0.249-0.115,0.229-0.277c-0.018-0.15-0.144-0.193-0.268-0.248
	c-0.215-0.098-0.442-0.029-0.714-0.065c0.218-0.116,0.389-0.202,0.554-0.297c0.084-0.049,0.234-0.062,0.193-0.208
	c-0.037-0.137-0.166-0.186-0.292-0.178c-0.136,0.008-0.27,0.049-0.403,0.08c-0.184,0.045-0.367,0.041-0.585,0.019
	c0.178-0.187,0.33-0.343,0.482-0.502c0.094-0.097,0.092-0.202,0.028-0.313c-0.068-0.117-0.175-0.098-0.284-0.086
	c-0.08,0.01-0.141,0.094-0.24,0.055c0.046-0.204,0.132-0.398,0.113-0.607c-0.021-0.238-0.186-0.343-0.408-0.378
	C171.133,249.91,170.872,249.666,170.82,249.383z"/>
<path fill="#E46425" d="M316.699,41.809c-0.107-0.265,0.197-0.521,0.529-0.547c0.285-0.022,0.572-0.01,0.857-0.024
	c0.24-0.012,0.549,0.084,0.664-0.204c0.088-0.218-0.142-0.38-0.262-0.55c-0.586-0.821-1.09-1.682-1.398-2.652
	c-0.163-0.509-0.223-1.01,0.128-1.429c0.378-0.452,0.875-0.149,1.31-0.065c0.756,0.146,1.406,0.701,2.324,0.611
	c-0.684-1.172-1.211-2.34-1.568-3.579c-0.189-0.663-0.401-1.354,0.266-1.88c0.625-0.492,1.229-0.161,1.803,0.144
	c0.475,0.251,0.928,0.543,1.396,0.812c0.244,0.141,0.527,0.395,0.778,0.191c0.313-0.253,0.072-0.595-0.053-0.883
	c-0.341-0.789-0.776-1.55-1.021-2.368c-0.382-1.285-1.121-2.516-0.789-3.946c0.251-1.082,0.98-1.334,1.766-0.548
	c0.937,0.938,1.797,1.951,2.688,2.931c0.379,0.415,0.738,0.854,1.313,1.007c0.156-0.3,0.05-0.534-0.021-0.774
	c-0.693-2.336-1.373-4.677-2.087-7.008c-0.265-0.866-0.442-1.733-0.411-2.642c0.016-0.473-0.027-0.996,0.508-1.196
	c0.627-0.236,0.897,0.306,1.176,0.701c1.035,1.475,1.769,3.115,2.549,4.729c0.204,0.423,0.34,0.924,0.893,1.167
	c0.246-0.952,0.019-1.777-0.177-2.606c-0.399-1.708-1.05-3.36-1.187-5.126c-0.051-0.651-0.358-1.633,0.342-1.84
	c0.891-0.264,1.049,0.808,1.268,1.427c1.25,3.575,3.104,6.848,4.971,10.115c0.123,0.218,0.25,0.435,0.379,0.65
	c0.096,0.156,0.228,0.34,0.41,0.273c0.222-0.08,0.291-0.316,0.23-0.542c-0.08-0.312-0.184-0.619-0.293-0.921
	c-0.418-1.146-0.836-2.29-1.086-3.487c-0.061-0.287-0.115-0.589,0.154-0.792c0.309-0.23,0.627-0.084,0.904,0.079
	c0.35,0.204,0.582,0.533,0.768,0.883c0.654,1.234,1.33,2.458,1.826,3.771c0.758,2.012,1.479,4.04,2.537,5.925
	c0.219,0.39,0.332,0.894,0.971,0.933c-0.213-1.064-0.43-2.104-0.626-3.148c-0.208-1.099-0.181-2.215-0.155-3.324
	c0.014-0.585,0.18-1.236,0.883-1.29c0.695-0.053,0.92,0.567,1.088,1.133c0.07,0.24,0.115,0.488,0.168,0.734
	c1.43,6.801,3.139,13.542,4.4,20.38c0.064,0.35,0.141,0.698,0.385,0.989c1.361,1.621,1.656,3.519,1.414,5.549
	c-0.087,0.732,0.121,1.295,0.746,1.761c0.803,0.598,1.602,1.229,2.285,1.956c0.805,0.856,1.742,1.029,2.83,0.925
	c2.105-0.201,4.184-0.47,6.217-1.134c1.482-0.485,3.02-0.948,4.639-0.578c1.533,0.35,2.223,1.426,1.842,2.94
	c-0.362,1.432-0.106,1.749,1.39,1.466c1.724-0.325,3.416-0.801,5.138-1.14c4.27-0.842,8.418-1.978,12.174-4.3
	c0.93-0.575,2.018-0.917,3.113-1.146c2.891-0.604,5.612-1.688,8.297-2.896c1.926-0.867,3.893-1.645,5.805-2.536
	c4.711-2.194,9.357-4.512,13.52-7.668c1.916-1.454,3.627-3.148,5.352-4.823c0.387-0.376,0.756-0.809,1.564-0.926
	c-1.129,2.056-2.621,3.543-4.068,5.068c-0.857,0.792-1.715,1.583-2.572,2.375c-1.158,0.913-2.346,1.793-3.27,2.981
	c1.383-0.636,2.6-1.517,3.773-2.467c0.848-0.493,1.682-1.007,2.367-1.726c1.055-0.734,2.104-1.48,3.174-2.195
	c0.248-0.167,0.604-0.438,0.865-0.145c0.248,0.275-0.008,0.61-0.189,0.87c-0.854,1.21-1.895,2.238-3.078,3.12
	c-2.262,1.688-4.529,3.367-6.797,5.049c-0.578,0.156-0.938,0.519-1.094,1.176c0.402-0.164,0.805-0.104,1.076-0.41
	c1.254-0.512,2.5-1.042,3.762-1.529c0.803-0.309,1.625-0.566,2.445-0.819c0.357-0.11,0.742-0.078,0.988,0.238
	c0.307,0.393-0.066,0.657-0.262,0.935c-0.471,0.67-1.189,1.019-1.871,1.413c-1.988,1.154-4.117,2.02-6.18,3.03
	c-0.176,0.087-0.48,0.125-0.402,0.365c0.133,0.408,0.367,0.063,0.582,0.023c1.375-0.259,2.762-0.463,4.164-0.409
	c0.641,0.024,1.447,0.026,1.572,0.818c0.125,0.802-0.73,0.869-1.254,1.089c-1.484,0.627-3.08,0.98-4.674,1.763
	c0.588,0.069,1.016,0.109,1.439,0.171c1.063,0.156,2.145,0.245,3.109,0.786c0.25,0.141,0.527,0.289,0.473,0.641
	c-0.047,0.303-0.225,0.528-0.531,0.614c-0.518,0.145-1.031,0.324-1.561,0.409c-1.18,0.191-2.369,0.335-3.869,0.54
	c0.934,0.47,1.588,0.792,2.232,1.13c0.186,0.097,0.393,0.223,0.365,0.478c-0.027,0.253-0.24,0.345-0.457,0.386
	c-1.584,0.303-2.918,1.593-4.742,1.039c0.518,1.282,0.205,1.798-1.111,2.036c-1.395,0.251-2.818,0.211-4.316,0.275
	c0.299,0.484,0.73,0.501,1.047,0.703c0.418,0.269,1.041,0.518,0.904,1.057c-0.158,0.611-0.844,0.771-1.428,0.702
	c-0.889-0.104-1.764-0.319-2.643-0.484c-1.01-0.188-2.021-0.374-3.279-0.607c1.117,1.118,2.084,1.907,3.146,2.581
	c0.424,0.268,0.854,0.551,1.199,0.905c0.371,0.378,0.732,0.839,0.311,1.415c-0.391,0.533-0.877,0.361-1.348,0.136
	c-1.035-0.494-2.055-1.023-3.104-1.485c-0.303-0.133-0.645-0.463-1.133-0.117c0.738,0.792,1.564,1.44,1.813,2.526
	c0.262,1.137-0.32,1.845-1.471,1.621c-0.6-0.117-1.178-0.356-1.658-0.739c-0.631-0.502-0.93-0.341-1.027,0.414
	c-0.113,0.881-0.672,1.246-1.431,0.883c-1.099-0.524-1.558-0.156-1.951,0.887c-0.403,1.073-1.245,1.178-2.108,0.375
	c-0.33-0.306-0.597-0.681-1.064-1.226c-0.063,0.691-0.057,1.042-0.137,1.372c-0.104,0.418-0.404,0.811-0.828,0.474
	c-0.549-0.438-1.035-0.313-1.602-0.151c-0.447,0.128-0.939,0.213-1.312-0.191c-0.347-0.378-0.485-0.249-0.779,0.114
	c-0.586,0.721-1.429,0.927-2.207,0.406c-0.595-0.397-0.771-0.136-1.06,0.292c-0.323,0.483-0.768,1.037-1.391,0.745
	c-0.854-0.4-1.271,0.139-1.736,0.594c-0.659,0.644-1.223-0.439-1.983,0.012c-1.274,0.755-2.853,0.326-4.284,0.747
	c-0.683,0.201-1.648-0.307-2.546,0.023c-0.43,0.158-0.771-0.252-0.997-0.658c-0.111-0.201-0.298-0.635-0.435-0.502
	c-0.83,0.808-2.097,0.357-2.978,1.064c0.369,0.513,0.857,0.813,1.336,1.109c5.146,3.189,10.187,6.557,15.658,9.192
	c0.609,0.294,1.229,0.599,1.697,1.114c0.582,0.643,0.639,1.77-0.012,1.959c-1.057,0.309-1.317,0.818-0.998,1.783
	c0.021,0.06-0.022,0.139-0.037,0.209c-0.376,1.931-1.973,2.593-3.992,1.655c-0.781-0.037-0.326,0.47-0.232,0.66
	c0.408,0.825,0.61,1.664,0.522,2.593c-0.163,1.756-1.543,2.645-3.213,2.036c-0.47-0.171-0.937-0.34-1.405-0.51
	c-1.123-0.843-1.891-2.085-3.242-2.971c0.166,0.99,0.875,1.641,0.654,2.513c-0.229,0.909-0.865,1.52-1.652,1.88
	c-2.826,1.295-4.611,0.217-5.509-2.751c-0.065,1.238-0.163,2.294-0.476,3.332c-0.207,0.688-0.646,1.119-1.288,1.323
	c-2.058,0.654-3.278,0.022-3.983-2.056c-0.289-0.853-0.516-1.725-0.771-2.589c-0.367,1.023-0.483,2.031-0.616,3.038
	c-0.146,1.101-0.396,2.197-1.608,2.573c-2.025,0.626-4.078,0.188-4.453-2.376c-0.033-0.226,0.029-0.505-0.263-0.699
	c-0.108,0.062-0.233,0.118-0.342,0.199c-2.106,1.602-3.408,1.562-5.381-0.228c-0.349-0.317-0.503-0.194-0.777,0.062
	c-0.901,0.839-1.929,1.354-3.215,1.082c-0.247-0.053-0.472-0.038-0.711,0.117c-1.701,1.104-3.365,0.814-4.336-0.888
	c-0.345-0.602-0.569-0.506-1.058-0.349c-1.66,0.536-3.049,0.034-3.69-1.284c-0.396-0.809-0.371-1.651-0.272-2.525
	c0.127-1.125,0.784-2.109,0.807-3.252c0.006-0.005,0.012-0.01,0.018-0.014c0.008-0.011,0.018-0.022,0.025-0.034
	c0.031-0.006,0.061-0.013,0.091-0.02c-0.021-0.009-0.05-0.029-0.056-0.024c-0.015,0.012-0.023,0.029-0.035,0.044
	c-0.014,0.003-0.027,0.006-0.041,0.009c0,0.013-0.002,0.025-0.002,0.039c-0.727,0.556-1.418,1.167-2.189,1.652
	c-1.068,0.673-2.176,0.317-2.621-0.816c-0.172-0.439-0.426-0.605-0.85-0.679c-0.982-0.173-1.303-0.846-1.376-1.773
	c-0.065-0.844,0.394-1.47,0.788-2.141c-2.592-0.728-3.164-1.858-2.172-4.282c0.16-0.391-0.061-0.491-0.228-0.708
	c-0.801-1.032-0.552-2.001,0.679-2.44c1.518-0.541,3.039-1.083,4.592-1.501c5.021-1.349,9.941-3.006,14.857-4.677
	c1.223-0.416,2.061-1.396,2.928-2.29c0.369-0.381,0.338-0.604-0.313-0.826c-1.046-0.357-2.429-0.537-2.144-2.399
	c-1.068,0.938-2.082,1.414-3.242,1.624c-0.631,0.114-1.072-0.538-1.633-0.36c-0.84,0.264-1.455-0.044-2.066-0.544
	c-0.234-0.191-0.488-0.479-0.854-0.243c-0.916,0.594-1.705,0.153-2.508-0.279c-0.332-0.178-0.625-0.578-1.061-0.376
	c-0.77,0.355-1.203-0.061-1.614-0.61c-0.459-0.611-0.991-0.975-1.817-0.658c-1.021,0.393-1.793-0.144-2.513-0.788
	c-0.476-0.425-0.883-0.884-1.655-0.826c-0.545,0.041-0.735-0.453-0.711-0.988c0.016-0.341,0.33-0.655,0.104-1.02
	c-2.488,0.627-2.515,0.625-2.716-1.985c-0.043-0.556-0.333-0.632-0.751-0.681c-0.913-0.108-1.269-0.58-0.939-1.48
	c0.248-0.681,0.148-0.974-0.689-0.795c-0.578,0.125-1.275,0.165-1.607-0.524c-0.308-0.641,0.082-1.127,0.433-1.658
	c0.606-0.919,1.676-1.227,2.659-2.059c-1.154,0.092-2.043,0.186-2.936,0.225c-0.454,0.021-1.075,0.351-1.287-0.338
	c-0.194-0.631,0.189-1.149,0.707-1.436c0.557-0.309,1.189-0.486,1.799-0.697c0.837-0.291,1.555-0.76,2.359-1.403
	c-1.168-0.284-2.168-0.526-3.17-0.769c-0.615-0.149-0.875-0.571-0.902-1.174c-0.026-0.637,0.449-0.822,0.908-1.051
	c0.336-0.167,0.791,0.012,1.084-0.395c-0.696-0.687-1.522-1.24-1.977-2.114c-0.516-0.997-0.128-1.822,0.661-2.522
	C316.789,44.682,317.207,43.06,316.699,41.809z"/>
<path fill="#E46425" d="M527.576,312.559c0.023-0.182,0.273-0.225,0.467-0.133c0.166,0.079,0.32,0.178,0.482,0.261
	c0.137,0.071,0.275,0.225,0.434,0.102c0.117-0.093,0.043-0.256,0.031-0.388c-0.063-0.643-0.063-1.281,0.078-1.916
	c0.072-0.335,0.199-0.632,0.527-0.75c0.355-0.129,0.533,0.197,0.746,0.384c0.371,0.323,0.553,0.839,1.088,1.084
	c0-0.868,0.082-1.685,0.281-2.483c0.107-0.428,0.213-0.878,0.75-0.955c0.504-0.07,0.732,0.307,0.951,0.658
	c0.184,0.291,0.34,0.6,0.512,0.896c0.09,0.156,0.166,0.389,0.369,0.354c0.254-0.038,0.232-0.305,0.256-0.505
	c0.064-0.546,0.066-1.105,0.195-1.638c0.201-0.833,0.186-1.751,0.828-2.437c0.486-0.519,0.971-0.424,1.152,0.264
	c0.215,0.819,0.369,1.655,0.547,2.483c0.078,0.353,0.137,0.71,0.402,0.979c0.184-0.116,0.201-0.279,0.236-0.438
	c0.367-1.515,0.742-3.027,1.094-4.546c0.133-0.563,0.313-1.103,0.621-1.594c0.16-0.257,0.305-0.56,0.664-0.5
	c0.422,0.071,0.398,0.458,0.426,0.767c0.1,1.146-0.021,2.29-0.107,3.434c-0.021,0.301-0.105,0.62,0.121,0.933
	c0.441-0.448,0.578-0.978,0.736-1.499c0.328-1.072,0.498-2.195,0.988-3.217c0.182-0.376,0.324-1.02,0.779-0.908
	c0.578,0.139,0.32,0.784,0.242,1.195c-0.453,2.38-0.479,4.785-0.494,7.191c0,0.159,0,0.32,0.002,0.48
	c0.002,0.116,0.018,0.261,0.141,0.283c0.146,0.025,0.262-0.082,0.301-0.228c0.057-0.197,0.098-0.399,0.135-0.604
	c0.135-0.768,0.271-1.534,0.518-2.276c0.059-0.179,0.125-0.363,0.34-0.389c0.244-0.029,0.373,0.154,0.475,0.333
	c0.129,0.225,0.15,0.479,0.143,0.734c-0.033,0.895-0.053,1.787-0.199,2.673c-0.229,1.355-0.479,2.71-0.498,4.092
	c-0.004,0.287-0.104,0.602,0.238,0.828c0.225-0.657,0.438-1.302,0.662-1.943c0.238-0.674,0.611-1.282,0.98-1.889
	c0.195-0.318,0.496-0.626,0.902-0.431c0.4,0.194,0.326,0.609,0.238,0.977c-0.039,0.155-0.094,0.308-0.143,0.46
	c-1.391,4.222-2.607,8.5-4.104,12.688c-0.076,0.215-0.146,0.432-0.104,0.671c0.232,1.335-0.213,2.479-0.998,3.524
	c-0.283,0.377-0.35,0.756-0.152,1.214c0.252,0.588,0.49,1.192,0.637,1.814c0.172,0.731,0.635,1.128,1.27,1.42
	c1.23,0.563,2.467,1.082,3.805,1.366c0.977,0.208,1.975,0.444,2.752,1.169c0.736,0.685,0.771,1.502,0.074,2.217
	c-0.66,0.677-0.619,0.934,0.299,1.257c1.059,0.373,2.146,0.653,3.209,1.018c2.633,0.903,5.291,1.605,8.115,1.526
	c0.697-0.021,1.41,0.14,2.09,0.364c1.793,0.593,3.646,0.866,5.52,1.06c1.344,0.14,2.682,0.34,4.023,0.459
	c3.313,0.298,6.625,0.506,9.941,0.096c1.525-0.189,3.016-0.579,4.508-0.951c0.334-0.085,0.678-0.205,1.162-0.013
	c-1.283,0.776-2.588,1.12-3.877,1.5c-0.729,0.163-1.457,0.326-2.186,0.488c-0.934,0.135-1.873,0.241-2.766,0.603
	c0.971,0.092,1.926-0.006,2.879-0.154c0.627-0.002,1.256-0.02,1.863-0.195c0.82-0.067,1.639-0.146,2.461-0.196
	c0.191-0.014,0.475-0.05,0.525,0.196c0.049,0.232-0.201,0.336-0.385,0.421c-0.859,0.396-1.766,0.63-2.703,0.739
	c-1.793,0.209-3.586,0.409-5.381,0.612c-0.371-0.1-0.686-0.014-0.982,0.3c0.275,0.039,0.479,0.201,0.729,0.118
	c0.857,0.12,1.717,0.226,2.57,0.36c0.543,0.088,1.08,0.208,1.617,0.332c0.232,0.055,0.436,0.194,0.469,0.447
	c0.043,0.316-0.248,0.343-0.443,0.436c-0.477,0.22-0.984,0.181-1.488,0.181c-1.471,0.001-2.926-0.204-4.391-0.306
	c-0.125-0.009-0.309-0.084-0.342,0.071c-0.057,0.27,0.186,0.153,0.314,0.199c0.846,0.298,1.678,0.631,2.436,1.111
	c0.348,0.218,0.793,0.479,0.607,0.956c-0.188,0.482-0.682,0.246-1.041,0.199c-1.025-0.129-2.02-0.444-3.152-0.522
	c0.303,0.228,0.527,0.387,0.742,0.558c0.537,0.428,1.107,0.822,1.467,1.433c0.096,0.157,0.199,0.328,0.059,0.507
	c-0.123,0.153-0.295,0.22-0.492,0.17c-0.332-0.087-0.676-0.152-0.994-0.274c-0.715-0.272-1.42-0.574-2.313-0.942
	c0.363,0.56,0.623,0.945,0.871,1.342c0.07,0.113,0.146,0.249,0.049,0.381s-0.242,0.114-0.375,0.067
	c-0.977-0.34-2.127-0.056-2.957-0.947c-0.125,0.875-0.465,1.063-1.27,0.771c-0.852-0.31-1.629-0.787-2.477-1.233
	c0.01,0.364,0.244,0.512,0.354,0.725c0.146,0.283,0.41,0.621,0.16,0.875c-0.283,0.287-0.715,0.156-1.016-0.067
	c-0.457-0.345-0.871-0.743-1.307-1.117c-0.498-0.428-0.996-0.854-1.619-1.387c0.26,0.977,0.541,1.724,0.914,2.437
	c0.146,0.284,0.295,0.578,0.371,0.886c0.086,0.329,0.139,0.7-0.281,0.884c-0.389,0.169-0.602-0.081-0.789-0.357
	c-0.414-0.605-0.809-1.225-1.24-1.817c-0.125-0.17-0.207-0.463-0.59-0.428c0.156,0.676,0.404,1.299,0.191,1.979
	c-0.219,0.713-0.77,0.918-1.332,0.425c-0.295-0.257-0.537-0.575-0.682-0.939c-0.188-0.48-0.404-0.487-0.701-0.101
	c-0.346,0.45-0.771,0.473-1.074,0.028c-0.439-0.643-0.813-0.586-1.363-0.136c-0.568,0.464-1.066,0.252-1.287-0.47
	c-0.086-0.274-0.113-0.567-0.197-1.02c-0.256,0.361-0.365,0.56-0.516,0.716c-0.191,0.198-0.484,0.318-0.609-0.003
	c-0.164-0.42-0.473-0.507-0.838-0.6c-0.289-0.07-0.588-0.184-0.664-0.525c-0.07-0.319-0.188-0.293-0.467-0.188
	c-0.557,0.211-1.088,0.055-1.354-0.481c-0.201-0.411-0.381-0.322-0.68-0.18c-0.334,0.163-0.756,0.327-1.006-0.034
	c-0.346-0.495-0.75-0.33-1.152-0.229c-0.57,0.146-0.535-0.635-1.102-0.629c-0.947,0.008-1.684-0.734-2.611-0.962
	c-0.439-0.107-0.813-0.698-1.416-0.804c-0.287-0.051-0.346-0.388-0.34-0.685c0.002-0.147,0.039-0.446-0.08-0.417
	c-0.717,0.181-1.273-0.476-1.986-0.366c0.037,0.402,0.213,0.726,0.383,1.042c1.824,3.416,3.531,6.896,5.715,10.109
	c0.244,0.356,0.488,0.726,0.582,1.161c0.115,0.542-0.215,1.184-0.635,1.08c-0.686-0.169-0.992,0.029-1.125,0.667
	c-0.008,0.038-0.057,0.067-0.088,0.103c-0.826,0.948-1.924,0.803-2.738-0.364c-0.422-0.271-0.332,0.155-0.342,0.291
	c-0.039,0.587-0.195,1.116-0.543,1.603c-0.652,0.92-1.701,0.969-2.43,0.096c-0.205-0.245-0.41-0.489-0.615-0.733
	c-0.352-0.825-0.377-1.76-0.84-2.684c-0.227,0.603-0.043,1.188-0.443,1.6c-0.42,0.432-0.969,0.563-1.52,0.512
	c-1.979-0.19-2.621-1.359-2.164-3.289c-0.434,0.664-0.826,1.217-1.332,1.689c-0.336,0.314-0.717,0.412-1.137,0.319
	c-1.35-0.299-1.822-1.04-1.545-2.416c0.111-0.563,0.268-1.119,0.402-1.68c-0.531,0.448-0.92,0.969-1.314,1.481
	c-0.436,0.563-0.924,1.089-1.717,0.908c-1.322-0.304-2.316-1.204-1.701-2.743c0.053-0.136,0.18-0.271,0.08-0.471
	c-0.082-0.001-0.168-0.011-0.254,0c-1.68,0.211-2.387-0.229-2.904-1.853c-0.09-0.287-0.215-0.269-0.449-0.216
	c-0.77,0.175-1.502,0.132-2.127-0.433c-0.119-0.108-0.248-0.172-0.43-0.163c-1.297,0.065-2.123-0.629-2.115-1.883
	c0.004-0.442-0.15-0.462-0.473-0.531c-1.09-0.236-1.699-0.96-1.631-1.896c0.043-0.573,0.324-1.031,0.658-1.484
	c0.432-0.582,1.111-0.914,1.49-1.54c0.004-0.001,0.01-0.003,0.016-0.003c0.008-0.004,0.016-0.006,0.023-0.01
	c0.02,0.006,0.037,0.012,0.057,0.018c-0.008-0.012-0.018-0.031-0.021-0.031c-0.012,0.003-0.023,0.01-0.035,0.015
	c-0.008-0.004-0.016-0.006-0.023-0.009c-0.006,0.007-0.01,0.014-0.014,0.021c-0.582,0.074-1.16,0.19-1.742,0.211
	c-0.809,0.029-1.307-0.521-1.188-1.292c0.045-0.299-0.043-0.471-0.252-0.647c-0.488-0.41-0.449-0.886-0.193-1.423
	c0.234-0.487,0.689-0.688,1.123-0.933c-1.201-1.233-1.154-2.043,0.172-3.065c0.215-0.165,0.125-0.292,0.104-0.464
	c-0.113-0.829,0.336-1.284,1.156-1.133c1.014,0.188,2.029,0.375,3.021,0.644c3.211,0.862,6.467,1.524,9.723,2.178
	c0.811,0.163,1.588-0.111,2.354-0.328c0.326-0.093,0.383-0.226,0.092-0.558c-0.465-0.532-1.172-1.075-0.418-2.017
	c-0.891,0.178-1.604,0.115-2.314-0.141c-0.385-0.141-0.42-0.643-0.785-0.724c-0.551-0.124-0.791-0.49-0.971-0.964
	c-0.068-0.181-0.115-0.422-0.395-0.409c-0.697,0.036-0.992-0.462-1.299-0.957c-0.125-0.205-0.158-0.521-0.465-0.549
	c-0.539-0.051-0.646-0.421-0.697-0.855c-0.059-0.485-0.236-0.857-0.795-0.947c-0.691-0.11-0.945-0.654-1.139-1.241
	c-0.125-0.389-0.205-0.771-0.648-0.987c-0.314-0.152-0.264-0.487-0.076-0.775c0.117-0.184,0.391-0.256,0.385-0.53
	c-1.578-0.451-1.592-0.461-0.867-1.97c0.156-0.321,0.02-0.456-0.195-0.617c-0.473-0.354-0.518-0.728-0.045-1.121
	c0.355-0.296,0.395-0.49-0.125-0.661c-0.361-0.115-0.762-0.316-0.725-0.805c0.037-0.453,0.408-0.597,0.771-0.778
	c0.631-0.313,1.32-0.142,2.133-0.286c-0.668-0.318-1.189-0.553-1.697-0.817c-0.258-0.134-0.707-0.149-0.604-0.6
	c0.096-0.411,0.475-0.575,0.854-0.567c0.406,0.007,0.813,0.113,1.219,0.191c0.557,0.106,1.104,0.078,1.756-0.021
	c-0.557-0.532-1.031-0.986-1.508-1.442c-0.293-0.279-0.301-0.597-0.123-0.938c0.189-0.361,0.512-0.312,0.84-0.291
	c0.238,0.016,0.434,0.262,0.727,0.13c-0.166-0.604-0.445-1.175-0.416-1.805c0.035-0.716,0.514-1.048,1.176-1.184
	C526.703,314.178,527.453,313.414,527.576,312.559z"/>
<path fill="#E46425" d="M457.082,287.391c0.01-0.07,0.105-0.086,0.18-0.051c0.064,0.03,0.125,0.068,0.189,0.102
	c0.053,0.026,0.105,0.086,0.168,0.039c0.045-0.037,0.016-0.101,0.012-0.15c-0.023-0.249-0.023-0.497,0.029-0.743
	c0.027-0.13,0.078-0.245,0.207-0.291c0.137-0.05,0.205,0.077,0.287,0.147c0.145,0.127,0.215,0.326,0.424,0.422
	c0-0.338,0.031-0.652,0.107-0.963c0.041-0.166,0.082-0.342,0.291-0.371c0.195-0.027,0.283,0.117,0.369,0.256
	c0.07,0.113,0.131,0.23,0.197,0.347c0.035,0.062,0.064,0.151,0.145,0.14c0.1-0.017,0.09-0.119,0.1-0.196
	c0.023-0.212,0.023-0.429,0.076-0.636c0.078-0.322,0.07-0.68,0.32-0.943c0.188-0.202,0.375-0.165,0.445,0.102
	c0.084,0.317,0.146,0.644,0.213,0.965c0.031,0.136,0.053,0.274,0.156,0.379c0.072-0.045,0.078-0.108,0.092-0.17
	c0.143-0.588,0.287-1.174,0.424-1.763c0.053-0.22,0.121-0.428,0.242-0.618c0.063-0.101,0.117-0.218,0.258-0.193
	c0.162,0.027,0.154,0.178,0.164,0.298c0.039,0.442-0.008,0.888-0.041,1.331c-0.01,0.115-0.043,0.24,0.045,0.361
	c0.174-0.174,0.227-0.381,0.287-0.582c0.127-0.416,0.193-0.852,0.383-1.248c0.07-0.146,0.127-0.396,0.305-0.352
	c0.223,0.053,0.123,0.305,0.094,0.463c-0.176,0.924-0.188,1.855-0.191,2.789c-0.002,0.063-0.002,0.125,0,0.188
	c0,0.045,0.008,0.101,0.055,0.109c0.057,0.01,0.102-0.031,0.117-0.089c0.021-0.075,0.037-0.153,0.053-0.233
	c0.051-0.297,0.104-0.596,0.199-0.883c0.021-0.068,0.049-0.142,0.133-0.149c0.094-0.013,0.145,0.06,0.184,0.129
	c0.049,0.087,0.059,0.187,0.057,0.285c-0.016,0.347-0.021,0.692-0.078,1.036c-0.088,0.524-0.186,1.051-0.193,1.587
	c-0.002,0.11-0.039,0.231,0.092,0.319c0.088-0.254,0.17-0.504,0.258-0.752c0.094-0.263,0.238-0.498,0.381-0.733
	c0.076-0.123,0.191-0.242,0.35-0.166c0.156,0.075,0.127,0.235,0.094,0.379c-0.016,0.06-0.037,0.119-0.055,0.178
	c-0.539,1.638-1.012,3.298-1.592,4.921c-0.029,0.084-0.059,0.168-0.041,0.26c0.092,0.519-0.082,0.963-0.389,1.367
	c-0.107,0.146-0.135,0.293-0.059,0.471c0.098,0.229,0.191,0.463,0.248,0.705c0.066,0.283,0.244,0.438,0.492,0.55
	c0.477,0.219,0.955,0.42,1.475,0.53c0.379,0.08,0.766,0.172,1.066,0.453c0.287,0.266,0.301,0.582,0.029,0.858
	c-0.256,0.263-0.24,0.362,0.115,0.487c0.41,0.146,0.832,0.254,1.244,0.396c1.021,0.351,2.053,0.622,3.148,0.593
	c0.27-0.009,0.545,0.053,0.811,0.141c0.695,0.23,1.414,0.336,2.139,0.41c0.523,0.055,1.041,0.133,1.563,0.18
	c1.285,0.115,2.57,0.195,3.855,0.036c0.592-0.073,1.17-0.226,1.748-0.369c0.131-0.032,0.264-0.079,0.451-0.004
	c-0.498,0.301-1.004,0.435-1.504,0.581c-0.283,0.063-0.564,0.127-0.848,0.189c-0.363,0.053-0.729,0.094-1.072,0.233
	c0.375,0.035,0.746-0.003,1.115-0.062c0.244,0,0.488-0.006,0.725-0.074c0.316-0.027,0.635-0.057,0.953-0.077
	c0.074-0.005,0.186-0.019,0.203,0.077c0.02,0.09-0.078,0.13-0.148,0.162c-0.334,0.153-0.686,0.244-1.049,0.287
	c-0.693,0.082-1.391,0.158-2.086,0.237c-0.145-0.039-0.266-0.006-0.381,0.116c0.105,0.016,0.186,0.078,0.281,0.045
	c0.334,0.047,0.666,0.088,0.998,0.141c0.211,0.034,0.418,0.08,0.627,0.129c0.09,0.021,0.168,0.076,0.182,0.174
	c0.018,0.123-0.096,0.134-0.174,0.168c-0.184,0.086-0.381,0.07-0.576,0.07c-0.57,0-1.135-0.08-1.703-0.119
	c-0.049-0.002-0.119-0.031-0.131,0.028c-0.021,0.104,0.07,0.06,0.121,0.077c0.328,0.115,0.65,0.244,0.945,0.432
	c0.133,0.084,0.307,0.187,0.234,0.371c-0.072,0.188-0.266,0.096-0.402,0.077c-0.398-0.05-0.783-0.173-1.225-0.202
	c0.117,0.088,0.205,0.148,0.287,0.215c0.209,0.166,0.432,0.319,0.57,0.557c0.037,0.063,0.078,0.127,0.021,0.195
	c-0.049,0.061-0.113,0.086-0.189,0.065c-0.129-0.032-0.262-0.06-0.387-0.106c-0.277-0.104-0.551-0.223-0.896-0.364
	c0.141,0.218,0.24,0.366,0.338,0.521c0.027,0.045,0.057,0.098,0.02,0.147c-0.037,0.052-0.096,0.045-0.146,0.026
	c-0.379-0.133-0.824-0.021-1.146-0.367c-0.049,0.339-0.18,0.41-0.492,0.299c-0.33-0.12-0.631-0.307-0.959-0.479
	c0.004,0.141,0.094,0.197,0.137,0.279c0.057,0.109,0.16,0.242,0.063,0.34c-0.109,0.111-0.277,0.061-0.395-0.025
	c-0.178-0.135-0.338-0.289-0.506-0.435c-0.193-0.165-0.387-0.331-0.629-0.536c0.102,0.377,0.211,0.668,0.354,0.944
	c0.059,0.108,0.115,0.224,0.146,0.343c0.031,0.129,0.053,0.271-0.109,0.344c-0.15,0.063-0.232-0.031-0.307-0.141
	c-0.16-0.234-0.314-0.475-0.48-0.704c-0.049-0.065-0.082-0.18-0.229-0.166c0.059,0.263,0.156,0.505,0.074,0.769
	c-0.086,0.275-0.301,0.355-0.52,0.164c-0.113-0.1-0.207-0.223-0.262-0.364c-0.074-0.187-0.158-0.188-0.273-0.038
	c-0.135,0.174-0.299,0.184-0.416,0.012c-0.172-0.25-0.314-0.228-0.529-0.053c-0.221,0.18-0.414,0.098-0.498-0.184
	c-0.033-0.105-0.045-0.219-0.076-0.395c-0.102,0.141-0.143,0.217-0.201,0.277c-0.074,0.076-0.188,0.123-0.236-0.002
	c-0.063-0.163-0.184-0.196-0.324-0.231c-0.111-0.028-0.229-0.071-0.258-0.204c-0.025-0.123-0.072-0.113-0.182-0.072
	c-0.215,0.082-0.422,0.021-0.523-0.188c-0.078-0.159-0.148-0.125-0.264-0.068c-0.129,0.063-0.293,0.127-0.391-0.014
	c-0.135-0.193-0.291-0.13-0.447-0.09c-0.221,0.057-0.207-0.246-0.428-0.244c-0.367,0.004-0.652-0.284-1.012-0.373
	c-0.172-0.042-0.316-0.271-0.549-0.311c-0.111-0.021-0.135-0.15-0.133-0.267c0-0.058,0.016-0.174-0.031-0.161
	c-0.277,0.069-0.492-0.186-0.77-0.143c0.014,0.154,0.082,0.279,0.146,0.404c0.709,1.324,1.371,2.674,2.217,3.92
	c0.096,0.139,0.189,0.281,0.227,0.45c0.045,0.21-0.082,0.46-0.246,0.419c-0.266-0.065-0.385,0.012-0.436,0.259
	c-0.004,0.015-0.021,0.025-0.035,0.04c-0.32,0.367-0.746,0.312-1.063-0.142c-0.164-0.104-0.129,0.061-0.133,0.112
	c-0.014,0.229-0.076,0.434-0.209,0.621c-0.254,0.356-0.662,0.375-0.941,0.037c-0.08-0.096-0.16-0.189-0.24-0.285
	c-0.135-0.319-0.146-0.682-0.326-1.04c-0.086,0.233-0.016,0.461-0.172,0.62c-0.162,0.167-0.375,0.219-0.588,0.198
	c-0.768-0.074-1.018-0.527-0.84-1.275c-0.168,0.257-0.32,0.472-0.518,0.655c-0.131,0.122-0.277,0.16-0.439,0.124
	c-0.523-0.116-0.707-0.403-0.6-0.938c0.043-0.219,0.104-0.434,0.156-0.65c-0.207,0.174-0.355,0.375-0.51,0.574
	c-0.17,0.219-0.359,0.424-0.666,0.354c-0.514-0.118-0.898-0.468-0.66-1.064c0.021-0.052,0.068-0.104,0.031-0.183
	c-0.031,0-0.064-0.004-0.1,0c-0.65,0.082-0.926-0.088-1.127-0.718c-0.033-0.111-0.084-0.104-0.174-0.083
	c-0.299,0.067-0.582,0.051-0.824-0.169c-0.047-0.042-0.098-0.066-0.168-0.063c-0.502,0.025-0.822-0.243-0.818-0.729
	c0-0.172-0.061-0.18-0.184-0.206c-0.424-0.091-0.66-0.372-0.633-0.735c0.018-0.222,0.125-0.398,0.256-0.574
	c0.166-0.227,0.432-0.354,0.576-0.599c0.002,0,0.004-0.001,0.006-0.001c0.004-0.002,0.008-0.002,0.01-0.004
	c0.01,0.002,0.016,0.005,0.021,0.007c-0.002-0.005-0.006-0.012-0.008-0.012c-0.004,0.001-0.01,0.003-0.016,0.005
	c-0.002-0.001-0.006-0.002-0.008-0.003c-0.002,0.003-0.004,0.005-0.006,0.008c-0.225,0.028-0.449,0.074-0.676,0.082
	c-0.314,0.011-0.506-0.202-0.461-0.501c0.018-0.116-0.018-0.184-0.1-0.251c-0.188-0.16-0.174-0.345-0.072-0.552
	c0.092-0.189,0.268-0.269,0.436-0.361c-0.467-0.479-0.447-0.793,0.066-1.189c0.084-0.063,0.049-0.112,0.039-0.18
	c-0.043-0.32,0.131-0.498,0.447-0.439c0.395,0.072,0.787,0.146,1.174,0.25c1.244,0.334,2.508,0.592,3.771,0.845
	c0.313,0.063,0.615-0.044,0.912-0.127c0.127-0.036,0.148-0.089,0.035-0.218c-0.18-0.205-0.455-0.416-0.162-0.781
	c-0.346,0.068-0.621,0.046-0.896-0.055c-0.148-0.055-0.162-0.248-0.305-0.279c-0.215-0.049-0.309-0.19-0.377-0.374
	c-0.027-0.07-0.045-0.163-0.152-0.158c-0.271,0.015-0.387-0.18-0.504-0.372c-0.049-0.079-0.063-0.201-0.182-0.212
	c-0.207-0.021-0.25-0.164-0.271-0.333c-0.021-0.188-0.09-0.332-0.309-0.367c-0.266-0.042-0.365-0.254-0.439-0.48
	c-0.049-0.15-0.078-0.299-0.252-0.383c-0.121-0.061-0.102-0.188-0.029-0.301c0.047-0.072,0.15-0.101,0.148-0.207
	c-0.611-0.175-0.617-0.178-0.336-0.764c0.061-0.125,0.008-0.177-0.076-0.239c-0.184-0.137-0.199-0.282-0.018-0.435
	c0.137-0.115,0.152-0.191-0.049-0.258c-0.141-0.045-0.295-0.123-0.281-0.312c0.016-0.176,0.158-0.231,0.301-0.303
	c0.244-0.121,0.514-0.054,0.826-0.11c-0.26-0.123-0.461-0.215-0.658-0.316c-0.1-0.053-0.273-0.059-0.232-0.232
	c0.037-0.158,0.184-0.225,0.33-0.221c0.156,0.003,0.314,0.045,0.473,0.074c0.215,0.041,0.428,0.031,0.682-0.008
	c-0.217-0.207-0.398-0.383-0.586-0.56c-0.111-0.108-0.115-0.231-0.047-0.364c0.074-0.141,0.197-0.119,0.324-0.113
	c0.094,0.008,0.17,0.103,0.283,0.051c-0.064-0.233-0.172-0.454-0.162-0.698c0.014-0.278,0.201-0.406,0.457-0.459
	C456.742,288.02,457.033,287.723,457.082,287.391z"/>
<path fill="#E46425" d="M612.042,305.021c0.004-0.023,0.035-0.029,0.061-0.018c0.021,0.01,0.041,0.021,0.063,0.033
	c0.018,0.009,0.035,0.027,0.057,0.013c0.016-0.012,0.004-0.032,0.004-0.05c-0.008-0.082-0.01-0.165,0.01-0.246
	c0.01-0.043,0.025-0.081,0.068-0.097c0.045-0.017,0.066,0.026,0.096,0.05c0.047,0.041,0.07,0.107,0.141,0.139
	c0-0.111,0.01-0.216,0.035-0.318c0.014-0.055,0.027-0.112,0.096-0.122c0.066-0.009,0.094,0.038,0.123,0.085
	c0.023,0.037,0.043,0.076,0.064,0.113c0.012,0.021,0.021,0.052,0.049,0.047c0.031-0.006,0.029-0.039,0.031-0.064
	c0.01-0.07,0.01-0.143,0.025-0.21c0.025-0.106,0.023-0.226,0.105-0.313c0.063-0.065,0.125-0.053,0.148,0.035
	c0.027,0.104,0.047,0.213,0.07,0.318c0.01,0.045,0.018,0.091,0.051,0.125c0.023-0.016,0.025-0.036,0.031-0.057
	c0.047-0.193,0.094-0.389,0.141-0.584c0.018-0.071,0.039-0.142,0.078-0.204c0.021-0.032,0.039-0.071,0.086-0.063
	c0.055,0.01,0.051,0.059,0.055,0.1c0.014,0.146-0.002,0.293-0.014,0.439c-0.002,0.039-0.014,0.08,0.016,0.12
	c0.057-0.058,0.074-0.126,0.096-0.192c0.041-0.139,0.063-0.281,0.127-0.414c0.021-0.047,0.041-0.131,0.1-0.115
	c0.074,0.018,0.041,0.101,0.031,0.152c-0.059,0.307-0.063,0.614-0.063,0.924c0,0.021,0,0.041,0,0.063
	c0,0.016,0.002,0.033,0.018,0.036c0.021,0.004,0.033-0.01,0.039-0.028c0.008-0.024,0.014-0.052,0.018-0.078
	c0.018-0.099,0.035-0.196,0.066-0.291c0.008-0.023,0.016-0.047,0.043-0.051c0.031-0.004,0.049,0.021,0.061,0.043
	c0.018,0.028,0.021,0.063,0.02,0.094c-0.004,0.115-0.006,0.229-0.025,0.345c-0.027,0.174-0.061,0.348-0.063,0.524
	c0,0.037-0.014,0.076,0.031,0.105c0.027-0.084,0.055-0.167,0.084-0.249c0.029-0.087,0.078-0.165,0.127-0.243
	c0.023-0.04,0.063-0.08,0.113-0.055c0.053,0.023,0.043,0.078,0.031,0.126c-0.004,0.021-0.012,0.039-0.018,0.059
	c-0.18,0.542-0.336,1.092-0.527,1.629c-0.01,0.027-0.02,0.057-0.014,0.086c0.029,0.173-0.027,0.318-0.127,0.453
	c-0.037,0.049-0.045,0.098-0.021,0.155c0.033,0.076,0.064,0.153,0.082,0.233c0.021,0.094,0.082,0.146,0.162,0.183
	c0.158,0.072,0.318,0.139,0.49,0.175c0.125,0.027,0.252,0.059,0.352,0.15c0.096,0.088,0.102,0.191,0.01,0.284
	c-0.084,0.087-0.078,0.121,0.039,0.161c0.137,0.049,0.275,0.085,0.412,0.132c0.338,0.114,0.682,0.206,1.043,0.194
	c0.088-0.002,0.182,0.02,0.27,0.047c0.229,0.076,0.467,0.111,0.707,0.137c0.174,0.019,0.346,0.044,0.518,0.06
	c0.426,0.038,0.852,0.065,1.277,0.012c0.193-0.023,0.387-0.073,0.578-0.122c0.043-0.011,0.086-0.025,0.148-0.001
	c-0.166,0.101-0.332,0.145-0.498,0.192c-0.094,0.021-0.188,0.042-0.279,0.063c-0.121,0.018-0.24,0.03-0.355,0.077
	c0.125,0.013,0.248-0.001,0.369-0.021c0.082,0,0.162-0.002,0.24-0.024c0.104-0.01,0.211-0.02,0.314-0.025
	c0.025-0.001,0.063-0.006,0.068,0.025c0.006,0.029-0.027,0.043-0.051,0.054c-0.109,0.052-0.227,0.082-0.348,0.096
	c-0.229,0.027-0.461,0.053-0.689,0.079c-0.049-0.015-0.088-0.002-0.127,0.038c0.035,0.005,0.063,0.025,0.094,0.015
	c0.111,0.017,0.221,0.029,0.33,0.047c0.07,0.013,0.139,0.026,0.207,0.043c0.031,0.007,0.057,0.024,0.061,0.059
	c0.006,0.04-0.031,0.044-0.057,0.056c-0.061,0.027-0.127,0.022-0.191,0.022c-0.188,0-0.375-0.026-0.563-0.039
	c-0.018-0.001-0.039-0.012-0.043,0.01c-0.008,0.034,0.021,0.02,0.039,0.024c0.107,0.038,0.217,0.081,0.313,0.144
	c0.045,0.028,0.104,0.062,0.078,0.123c-0.021,0.062-0.088,0.031-0.133,0.024c-0.131-0.017-0.26-0.057-0.404-0.066
	c0.039,0.029,0.066,0.05,0.094,0.071c0.07,0.056,0.145,0.105,0.189,0.185c0.012,0.021,0.025,0.042,0.008,0.064
	c-0.016,0.021-0.039,0.027-0.063,0.021c-0.043-0.012-0.088-0.02-0.129-0.036c-0.092-0.034-0.182-0.073-0.297-0.12
	c0.047,0.071,0.08,0.121,0.111,0.172c0.01,0.016,0.02,0.032,0.006,0.05c-0.012,0.018-0.029,0.015-0.047,0.009
	c-0.125-0.044-0.273-0.007-0.381-0.121c-0.016,0.111-0.059,0.136-0.162,0.099c-0.109-0.04-0.209-0.102-0.318-0.157
	c0.002,0.046,0.031,0.064,0.047,0.093c0.018,0.036,0.053,0.08,0.02,0.111c-0.035,0.037-0.092,0.021-0.129-0.009
	c-0.061-0.044-0.113-0.096-0.168-0.144c-0.064-0.056-0.129-0.109-0.209-0.179c0.033,0.125,0.068,0.222,0.117,0.313
	c0.02,0.036,0.039,0.074,0.049,0.114c0.01,0.042,0.018,0.09-0.037,0.112c-0.049,0.021-0.076-0.011-0.102-0.047
	c-0.053-0.077-0.104-0.156-0.158-0.231c-0.018-0.022-0.027-0.061-0.076-0.057c0.02,0.088,0.053,0.167,0.023,0.256
	c-0.027,0.091-0.098,0.117-0.172,0.055c-0.037-0.033-0.066-0.074-0.086-0.121c-0.023-0.063-0.053-0.063-0.09-0.013
	c-0.045,0.058-0.1,0.061-0.139,0.004c-0.057-0.083-0.105-0.075-0.176-0.019c-0.072,0.061-0.137,0.032-0.164-0.061
	c-0.012-0.035-0.016-0.072-0.025-0.131c-0.033,0.047-0.047,0.07-0.066,0.092c-0.023,0.024-0.063,0.041-0.078,0
	c-0.021-0.055-0.061-0.065-0.107-0.077c-0.037-0.009-0.074-0.023-0.084-0.067c-0.01-0.041-0.025-0.037-0.063-0.023
	c-0.07,0.027-0.139,0.007-0.174-0.063c-0.023-0.053-0.049-0.041-0.086-0.022c-0.043,0.021-0.098,0.042-0.131-0.004
	c-0.043-0.064-0.096-0.043-0.146-0.029c-0.072,0.019-0.068-0.082-0.143-0.081c-0.121,0.001-0.215-0.095-0.334-0.124
	c-0.057-0.014-0.104-0.089-0.182-0.103c-0.037-0.008-0.045-0.051-0.045-0.088c0-0.021,0.006-0.059-0.01-0.055
	c-0.094,0.023-0.164-0.062-0.256-0.047c0.004,0.052,0.027,0.093,0.049,0.134c0.234,0.438,0.453,0.887,0.734,1.298
	c0.031,0.047,0.063,0.095,0.074,0.149c0.016,0.069-0.027,0.152-0.082,0.139c-0.088-0.021-0.127,0.005-0.145,0.086
	c-0.002,0.006-0.008,0.01-0.012,0.014c-0.105,0.122-0.246,0.104-0.352-0.047c-0.055-0.034-0.043,0.021-0.043,0.038
	c-0.006,0.074-0.025,0.143-0.07,0.204c-0.084,0.118-0.219,0.124-0.313,0.014c-0.025-0.032-0.053-0.063-0.078-0.095
	c-0.045-0.105-0.051-0.227-0.109-0.346c-0.027,0.078-0.004,0.153-0.057,0.206c-0.055,0.055-0.123,0.072-0.195,0.065
	c-0.254-0.024-0.336-0.175-0.277-0.423c-0.055,0.086-0.105,0.155-0.17,0.218c-0.045,0.04-0.094,0.053-0.146,0.041
	c-0.172-0.039-0.232-0.134-0.197-0.312c0.014-0.071,0.033-0.144,0.051-0.216c-0.066,0.059-0.117,0.124-0.168,0.19
	c-0.057,0.071-0.119,0.14-0.221,0.116c-0.17-0.039-0.297-0.154-0.219-0.353c0.008-0.018,0.021-0.035,0.01-0.061
	c-0.01,0-0.021-0.003-0.031,0c-0.217,0.026-0.307-0.029-0.373-0.238c-0.012-0.036-0.029-0.034-0.059-0.027
	c-0.1,0.022-0.193,0.018-0.273-0.056c-0.014-0.015-0.031-0.022-0.055-0.021c-0.166,0.008-0.273-0.081-0.271-0.242
	c0-0.057-0.02-0.06-0.061-0.067c-0.141-0.03-0.219-0.123-0.209-0.243c0.004-0.073,0.041-0.133,0.084-0.19
	c0.055-0.074,0.143-0.116,0.191-0.197h0.002c0-0.001,0.002-0.001,0.002-0.001c0.004,0,0.006,0.001,0.008,0.002
	c0-0.002-0.002-0.004-0.002-0.004c-0.002,0-0.004,0.001-0.006,0.002c0-0.001-0.002-0.001-0.002-0.001
	c0,0.001-0.002,0.001-0.002,0.002c-0.074,0.01-0.148,0.023-0.225,0.026c-0.104,0.004-0.168-0.066-0.152-0.166
	c0.006-0.037-0.006-0.061-0.031-0.083c-0.064-0.053-0.059-0.113-0.025-0.183c0.031-0.063,0.088-0.089,0.145-0.12
	c-0.154-0.158-0.146-0.262,0.021-0.394c0.027-0.021,0.018-0.037,0.014-0.061c-0.016-0.105,0.045-0.165,0.148-0.146
	c0.131,0.023,0.26,0.049,0.389,0.083c0.412,0.109,0.83,0.194,1.248,0.278c0.105,0.021,0.203-0.015,0.303-0.042
	c0.043-0.012,0.049-0.028,0.012-0.07c-0.061-0.068-0.15-0.14-0.053-0.261c-0.115,0.023-0.207,0.017-0.299-0.018
	c-0.049-0.018-0.055-0.082-0.102-0.093c-0.07-0.017-0.102-0.063-0.123-0.124c-0.01-0.023-0.016-0.054-0.051-0.052
	c-0.09,0.004-0.129-0.061-0.168-0.124c-0.016-0.025-0.021-0.066-0.061-0.069c-0.068-0.007-0.082-0.055-0.09-0.11
	c-0.006-0.063-0.029-0.109-0.102-0.122c-0.088-0.014-0.121-0.084-0.146-0.158c-0.016-0.051-0.025-0.1-0.084-0.127
	c-0.041-0.021-0.033-0.063-0.01-0.101c0.016-0.022,0.051-0.033,0.049-0.067c-0.201-0.059-0.203-0.06-0.109-0.254
	c0.02-0.041,0.002-0.059-0.025-0.078c-0.063-0.046-0.066-0.094-0.006-0.145c0.045-0.038,0.051-0.063-0.018-0.085
	c-0.045-0.015-0.098-0.041-0.092-0.104c0.004-0.059,0.051-0.076,0.098-0.101c0.082-0.04,0.17-0.019,0.275-0.037
	c-0.086-0.041-0.154-0.07-0.219-0.104c-0.033-0.019-0.09-0.021-0.078-0.077c0.014-0.053,0.063-0.074,0.109-0.073
	c0.053,0.001,0.104,0.016,0.156,0.024c0.072,0.014,0.143,0.011,0.227-0.002c-0.072-0.068-0.133-0.128-0.193-0.187
	c-0.037-0.035-0.039-0.076-0.016-0.119c0.023-0.048,0.064-0.041,0.105-0.039c0.031,0.002,0.059,0.034,0.094,0.018
	c-0.02-0.077-0.057-0.15-0.053-0.23c0.004-0.093,0.066-0.135,0.15-0.152C611.931,305.229,612.027,305.13,612.042,305.021z"/>
<path fill="#E46425" d="M466.755,19.393c-0.037-0.089,0.066-0.174,0.176-0.183c0.098-0.007,0.193-0.003,0.287-0.008
	c0.082-0.004,0.186,0.028,0.225-0.068c0.027-0.073-0.049-0.127-0.09-0.184c-0.195-0.275-0.363-0.563-0.467-0.888
	c-0.055-0.17-0.074-0.338,0.043-0.478c0.125-0.151,0.293-0.05,0.438-0.022c0.254,0.049,0.471,0.234,0.777,0.205
	c-0.229-0.392-0.404-0.783-0.523-1.198c-0.064-0.222-0.135-0.453,0.088-0.629c0.209-0.165,0.412-0.054,0.604,0.048
	c0.158,0.084,0.311,0.182,0.467,0.272c0.082,0.047,0.178,0.132,0.262,0.063c0.104-0.084,0.023-0.199-0.02-0.295
	c-0.111-0.264-0.26-0.519-0.34-0.792c-0.129-0.43-0.375-0.842-0.266-1.321c0.084-0.362,0.328-0.446,0.592-0.183
	c0.314,0.314,0.602,0.653,0.9,0.98c0.127,0.139,0.246,0.286,0.438,0.337c0.053-0.101,0.018-0.179-0.008-0.259
	c-0.232-0.782-0.459-1.565-0.697-2.345c-0.09-0.29-0.148-0.58-0.139-0.884c0.006-0.158-0.008-0.333,0.17-0.4
	c0.211-0.079,0.301,0.102,0.395,0.234c0.346,0.494,0.592,1.042,0.854,1.583c0.068,0.142,0.113,0.309,0.299,0.391
	c0.082-0.319,0.006-0.595-0.061-0.873c-0.133-0.571-0.352-1.124-0.396-1.715c-0.018-0.218-0.119-0.546,0.115-0.616
	c0.297-0.088,0.35,0.271,0.424,0.478c0.418,1.196,1.039,2.292,1.662,3.385c0.043,0.073,0.084,0.146,0.129,0.218
	c0.031,0.052,0.074,0.114,0.137,0.091c0.074-0.026,0.098-0.105,0.076-0.182c-0.025-0.104-0.061-0.207-0.098-0.308
	c-0.141-0.383-0.279-0.766-0.363-1.167c-0.02-0.096-0.039-0.197,0.053-0.265c0.104-0.077,0.211-0.028,0.303,0.026
	c0.117,0.068,0.193,0.178,0.256,0.296c0.221,0.413,0.447,0.822,0.611,1.262c0.254,0.673,0.494,1.352,0.85,1.983
	c0.074,0.13,0.111,0.299,0.324,0.313c-0.07-0.356-0.145-0.704-0.209-1.054c-0.07-0.368-0.061-0.741-0.053-1.112
	c0.006-0.196,0.061-0.414,0.297-0.432c0.23-0.018,0.307,0.19,0.363,0.379c0.023,0.08,0.037,0.163,0.057,0.246
	c0.479,2.276,1.051,4.532,1.473,6.82c0.021,0.117,0.047,0.234,0.129,0.331c0.455,0.542,0.555,1.178,0.473,1.857
	c-0.027,0.245,0.041,0.434,0.25,0.589c0.27,0.2,0.535,0.412,0.766,0.654c0.27,0.287,0.582,0.345,0.947,0.31
	c0.703-0.067,1.398-0.157,2.08-0.379c0.496-0.162,1.01-0.317,1.553-0.193c0.514,0.117,0.744,0.478,0.615,0.984
	c-0.121,0.479-0.035,0.585,0.465,0.491c0.576-0.109,1.145-0.268,1.719-0.382c1.43-0.281,2.818-0.662,4.074-1.439
	c0.313-0.192,0.676-0.307,1.043-0.383c0.967-0.202,1.879-0.565,2.775-0.969c0.645-0.29,1.303-0.55,1.943-0.849
	c1.576-0.734,3.131-1.51,4.521-2.566c0.643-0.486,1.215-1.054,1.791-1.614c0.131-0.126,0.254-0.271,0.523-0.31
	c-0.377,0.688-0.877,1.186-1.361,1.696c-0.287,0.265-0.572,0.53-0.859,0.795c-0.389,0.306-0.785,0.6-1.096,0.998
	c0.465-0.213,0.871-0.507,1.264-0.826c0.285-0.165,0.563-0.337,0.793-0.577c0.354-0.246,0.703-0.496,1.063-0.735
	c0.082-0.056,0.201-0.146,0.289-0.048c0.084,0.092-0.002,0.204-0.063,0.291c-0.285,0.405-0.635,0.749-1.029,1.044
	c-0.758,0.565-1.516,1.127-2.275,1.69c-0.193,0.052-0.313,0.173-0.365,0.394c0.135-0.055,0.27-0.035,0.359-0.137
	c0.42-0.171,0.836-0.349,1.26-0.512c0.27-0.104,0.545-0.189,0.818-0.274c0.119-0.037,0.248-0.026,0.33,0.08
	c0.104,0.131-0.021,0.22-0.088,0.313c-0.156,0.225-0.398,0.341-0.625,0.473c-0.666,0.386-1.379,0.676-2.068,1.014
	c-0.059,0.029-0.162,0.042-0.135,0.122c0.043,0.136,0.123,0.021,0.193,0.008c0.461-0.087,0.926-0.155,1.395-0.137
	c0.215,0.008,0.484,0.009,0.525,0.273c0.043,0.269-0.244,0.291-0.418,0.365c-0.498,0.21-1.031,0.328-1.564,0.59
	c0.197,0.023,0.34,0.037,0.482,0.058c0.354,0.052,0.717,0.082,1.039,0.263c0.084,0.047,0.178,0.097,0.158,0.215
	c-0.016,0.101-0.074,0.177-0.178,0.206c-0.174,0.048-0.346,0.108-0.521,0.137c-0.396,0.064-0.793,0.112-1.295,0.181
	c0.313,0.157,0.529,0.265,0.748,0.378c0.061,0.033,0.131,0.075,0.121,0.16s-0.08,0.115-0.152,0.129
	c-0.531,0.102-0.977,0.533-1.588,0.348c0.174,0.429,0.068,0.602-0.371,0.681c-0.467,0.084-0.943,0.071-1.445,0.092
	c0.102,0.162,0.244,0.167,0.352,0.235c0.141,0.09,0.35,0.173,0.303,0.354c-0.053,0.205-0.281,0.258-0.479,0.235
	c-0.297-0.035-0.59-0.107-0.885-0.162c-0.338-0.063-0.676-0.125-1.098-0.203c0.375,0.375,0.697,0.638,1.055,0.864
	c0.143,0.089,0.285,0.184,0.4,0.303c0.125,0.126,0.246,0.281,0.104,0.474c-0.131,0.178-0.293,0.121-0.451,0.045
	c-0.346-0.166-0.686-0.342-1.037-0.497c-0.102-0.044-0.217-0.155-0.379-0.039c0.246,0.265,0.523,0.482,0.605,0.846
	c0.088,0.38-0.107,0.617-0.492,0.542c-0.201-0.04-0.395-0.12-0.555-0.248c-0.211-0.168-0.313-0.114-0.344,0.139
	c-0.039,0.295-0.227,0.417-0.479,0.295c-0.367-0.175-0.521-0.052-0.652,0.297c-0.137,0.359-0.418,0.395-0.707,0.125
	c-0.109-0.102-0.197-0.228-0.355-0.41c-0.021,0.231-0.02,0.349-0.045,0.459c-0.035,0.14-0.135,0.271-0.277,0.159
	c-0.184-0.147-0.346-0.105-0.535-0.051c-0.148,0.042-0.314,0.071-0.439-0.064c-0.115-0.126-0.162-0.083-0.26,0.038
	c-0.195,0.241-0.479,0.31-0.738,0.136c-0.199-0.133-0.258-0.045-0.355,0.098c-0.107,0.162-0.256,0.347-0.465,0.249
	c-0.285-0.134-0.426,0.046-0.582,0.199c-0.221,0.215-0.408-0.147-0.662,0.004c-0.428,0.252-0.955,0.109-1.434,0.25
	c-0.23,0.067-0.553-0.103-0.854,0.008c-0.145,0.053-0.258-0.084-0.334-0.22c-0.037-0.067-0.1-0.212-0.145-0.168
	c-0.279,0.271-0.703,0.12-0.996,0.356c0.123,0.171,0.285,0.271,0.445,0.371c1.723,1.067,3.41,2.194,5.24,3.076
	c0.203,0.098,0.41,0.2,0.568,0.373c0.193,0.215,0.213,0.592-0.004,0.656c-0.354,0.103-0.441,0.273-0.334,0.597
	c0.006,0.02-0.008,0.046-0.014,0.07c-0.125,0.646-0.66,0.868-1.336,0.554c-0.262-0.013-0.109,0.157-0.078,0.221
	c0.137,0.276,0.205,0.557,0.176,0.868c-0.055,0.587-0.516,0.885-1.076,0.681c-0.156-0.057-0.313-0.114-0.469-0.171
	c-0.377-0.282-0.633-0.698-1.086-0.994c0.057,0.332,0.293,0.549,0.219,0.841c-0.076,0.304-0.289,0.509-0.553,0.629
	c-0.945,0.434-1.543,0.073-1.844-0.92c-0.021,0.414-0.055,0.768-0.158,1.115c-0.07,0.23-0.217,0.375-0.432,0.443
	c-0.688,0.219-1.098,0.007-1.334-0.688c-0.096-0.286-0.172-0.578-0.258-0.867c-0.123,0.342-0.162,0.68-0.207,1.017
	c-0.049,0.369-0.131,0.735-0.539,0.861c-0.678,0.209-1.363,0.063-1.488-0.795c-0.012-0.075,0.01-0.169-0.088-0.234
	c-0.037,0.021-0.078,0.04-0.115,0.066c-0.705,0.536-1.141,0.523-1.801-0.076c-0.115-0.106-0.168-0.065-0.26,0.021
	c-0.303,0.281-0.646,0.453-1.076,0.362c-0.082-0.018-0.156-0.013-0.236,0.04c-0.57,0.369-1.127,0.272-1.451-0.297
	c-0.115-0.201-0.191-0.169-0.355-0.117c-0.555,0.179-1.02,0.011-1.234-0.43c-0.131-0.271-0.123-0.552-0.092-0.845
	c0.043-0.376,0.264-0.706,0.271-1.088c0.002-0.002,0.004-0.003,0.006-0.005c0.002-0.004,0.006-0.007,0.008-0.011
	c0.012-0.002,0.021-0.004,0.029-0.007c-0.006-0.003-0.016-0.01-0.018-0.008c-0.004,0.004-0.01,0.009-0.014,0.015
	c-0.004,0.001-0.008,0.002-0.014,0.003c0,0.004,0,0.009,0,0.013c-0.242,0.186-0.475,0.391-0.732,0.553
	c-0.357,0.225-0.729,0.106-0.877-0.273c-0.059-0.147-0.143-0.203-0.283-0.228c-0.33-0.058-0.438-0.283-0.461-0.593
	c-0.021-0.282,0.131-0.492,0.264-0.717c-0.867-0.243-1.061-0.622-0.729-1.433c0.055-0.131-0.02-0.165-0.074-0.237
	c-0.27-0.346-0.186-0.67,0.227-0.817c0.508-0.181,1.018-0.362,1.537-0.502c1.68-0.451,3.326-1.006,4.973-1.565
	c0.408-0.139,0.689-0.467,0.979-0.767c0.125-0.127,0.113-0.202-0.104-0.276c-0.352-0.12-0.813-0.18-0.719-0.803
	c-0.357,0.314-0.695,0.473-1.084,0.543c-0.211,0.038-0.359-0.18-0.547-0.121c-0.281,0.088-0.486-0.015-0.691-0.182
	c-0.078-0.064-0.164-0.16-0.285-0.081c-0.307,0.199-0.57,0.051-0.84-0.094c-0.109-0.06-0.209-0.193-0.354-0.126
	c-0.258,0.119-0.402-0.02-0.541-0.204c-0.152-0.205-0.332-0.326-0.607-0.22c-0.342,0.131-0.6-0.048-0.84-0.264
	c-0.16-0.142-0.297-0.295-0.555-0.276c-0.184,0.014-0.246-0.151-0.238-0.331c0.006-0.114,0.109-0.219,0.035-0.341
	c-0.832,0.21-0.842,0.209-0.908-0.664c-0.016-0.186-0.111-0.211-0.252-0.228c-0.305-0.036-0.424-0.194-0.314-0.496
	c0.084-0.228,0.051-0.326-0.23-0.266c-0.193,0.042-0.426,0.055-0.537-0.175c-0.104-0.215,0.027-0.377,0.146-0.555
	c0.201-0.308,0.561-0.411,0.889-0.689c-0.387,0.031-0.684,0.062-0.982,0.075c-0.15,0.007-0.359,0.118-0.43-0.113
	c-0.066-0.211,0.063-0.385,0.236-0.48c0.186-0.104,0.396-0.163,0.602-0.233c0.279-0.097,0.521-0.254,0.789-0.469
	c-0.391-0.095-0.725-0.176-1.061-0.257c-0.205-0.05-0.293-0.191-0.303-0.393c-0.008-0.213,0.15-0.275,0.305-0.352
	c0.111-0.056,0.266,0.004,0.361-0.132c-0.23-0.23-0.508-0.415-0.66-0.708c-0.174-0.333-0.043-0.61,0.223-0.844
	C466.785,20.355,466.925,19.812,466.755,19.393z"/>
<path fill="#E46425" d="M572.101,58.465c-0.018-0.042,0.031-0.083,0.084-0.087c0.045-0.003,0.092-0.001,0.137-0.003
	c0.037-0.002,0.086,0.013,0.104-0.033c0.016-0.035-0.021-0.06-0.041-0.087c-0.094-0.13-0.172-0.267-0.221-0.421
	c-0.027-0.081-0.035-0.16,0.02-0.227c0.061-0.072,0.141-0.024,0.207-0.011c0.121,0.023,0.225,0.111,0.369,0.097
	c-0.107-0.186-0.191-0.371-0.248-0.568c-0.031-0.105-0.063-0.215,0.041-0.298c0.102-0.078,0.195-0.026,0.287,0.022
	c0.074,0.04,0.146,0.086,0.221,0.129c0.039,0.022,0.084,0.063,0.123,0.03c0.051-0.04,0.014-0.095-0.008-0.14
	c-0.055-0.125-0.123-0.246-0.162-0.375c-0.061-0.204-0.178-0.399-0.125-0.626c0.039-0.172,0.156-0.212,0.281-0.087
	c0.146,0.149,0.283,0.31,0.426,0.465c0.061,0.066,0.117,0.135,0.207,0.16c0.025-0.047,0.01-0.084-0.002-0.123
	c-0.109-0.371-0.219-0.742-0.332-1.112c-0.041-0.138-0.068-0.275-0.064-0.419c0.002-0.075-0.004-0.158,0.08-0.189
	c0.1-0.038,0.143,0.048,0.188,0.111c0.164,0.234,0.281,0.494,0.404,0.75c0.031,0.067,0.055,0.146,0.141,0.185
	c0.039-0.151,0.004-0.282-0.027-0.414c-0.063-0.271-0.166-0.533-0.188-0.813c-0.01-0.103-0.057-0.259,0.053-0.292
	c0.143-0.042,0.166,0.128,0.201,0.227c0.199,0.567,0.492,1.086,0.789,1.604c0.021,0.035,0.039,0.069,0.061,0.103
	c0.016,0.024,0.037,0.054,0.064,0.043c0.035-0.013,0.047-0.05,0.037-0.086c-0.014-0.049-0.029-0.098-0.047-0.146
	c-0.066-0.182-0.133-0.363-0.172-0.553c-0.01-0.045-0.02-0.093,0.023-0.125c0.049-0.037,0.1-0.013,0.145,0.013
	c0.055,0.032,0.092,0.084,0.121,0.14c0.104,0.196,0.211,0.39,0.289,0.598c0.121,0.319,0.234,0.641,0.402,0.94
	c0.035,0.062,0.053,0.142,0.154,0.148c-0.033-0.169-0.068-0.334-0.1-0.5c-0.033-0.174-0.029-0.351-0.023-0.527
	c0.002-0.093,0.027-0.196,0.141-0.205c0.109-0.008,0.145,0.09,0.172,0.18c0.012,0.038,0.018,0.077,0.025,0.116
	c0.229,1.079,0.498,2.148,0.697,3.232c0.012,0.056,0.023,0.111,0.063,0.157c0.217,0.257,0.264,0.558,0.225,0.88
	c-0.014,0.116,0.02,0.206,0.119,0.28c0.127,0.095,0.254,0.195,0.361,0.31c0.127,0.136,0.275,0.163,0.449,0.146
	c0.334-0.032,0.662-0.074,0.986-0.18c0.234-0.077,0.479-0.15,0.734-0.092c0.242,0.056,0.354,0.227,0.291,0.466
	c-0.057,0.227-0.016,0.277,0.223,0.233c0.271-0.052,0.541-0.127,0.813-0.181c0.68-0.133,1.336-0.313,1.934-0.682
	c0.146-0.091,0.318-0.145,0.492-0.182c0.459-0.096,0.891-0.268,1.316-0.459c0.305-0.138,0.617-0.261,0.92-0.402
	c0.748-0.348,1.484-0.716,2.146-1.217c0.303-0.23,0.574-0.499,0.848-0.765c0.063-0.06,0.121-0.128,0.248-0.147
	c-0.178,0.326-0.414,0.562-0.645,0.804c-0.137,0.125-0.271,0.251-0.408,0.376c-0.184,0.146-0.371,0.285-0.52,0.473
	c0.221-0.101,0.412-0.241,0.6-0.392c0.135-0.078,0.268-0.16,0.375-0.273c0.168-0.117,0.334-0.235,0.504-0.349
	c0.039-0.026,0.096-0.069,0.137-0.021c0.041,0.043,0,0.097-0.029,0.138c-0.135,0.192-0.301,0.355-0.488,0.495
	c-0.357,0.268-0.719,0.534-1.078,0.801c-0.092,0.025-0.148,0.082-0.172,0.187c0.063-0.026,0.127-0.017,0.17-0.065
	c0.197-0.082,0.396-0.166,0.598-0.243c0.127-0.049,0.258-0.09,0.387-0.13c0.059-0.018,0.117-0.012,0.156,0.038
	c0.049,0.062-0.01,0.104-0.041,0.148c-0.074,0.106-0.188,0.162-0.297,0.224c-0.314,0.183-0.652,0.32-0.98,0.48
	c-0.025,0.014-0.074,0.02-0.063,0.058c0.021,0.064,0.059,0.01,0.092,0.003c0.219-0.041,0.439-0.073,0.662-0.064
	c0.102,0.003,0.229,0.004,0.248,0.129c0.021,0.127-0.115,0.138-0.197,0.173c-0.236,0.1-0.488,0.155-0.742,0.28
	c0.094,0.011,0.162,0.017,0.229,0.027c0.17,0.024,0.34,0.039,0.494,0.125c0.039,0.022,0.084,0.045,0.074,0.102
	c-0.008,0.048-0.035,0.084-0.084,0.098c-0.082,0.023-0.164,0.051-0.248,0.065c-0.188,0.03-0.375,0.053-0.613,0.085
	c0.148,0.075,0.252,0.125,0.354,0.179c0.029,0.016,0.064,0.035,0.059,0.076c-0.004,0.041-0.037,0.055-0.072,0.061
	c-0.252,0.048-0.463,0.253-0.752,0.165c0.082,0.203,0.031,0.285-0.176,0.323c-0.223,0.04-0.447,0.034-0.686,0.044
	c0.047,0.077,0.115,0.079,0.166,0.111c0.066,0.042,0.164,0.082,0.143,0.167c-0.023,0.097-0.133,0.123-0.227,0.111
	c-0.141-0.017-0.279-0.05-0.42-0.077c-0.16-0.03-0.318-0.059-0.52-0.096c0.178,0.177,0.33,0.302,0.5,0.409
	c0.066,0.042,0.135,0.087,0.189,0.144c0.059,0.06,0.115,0.133,0.049,0.225c-0.063,0.084-0.141,0.057-0.215,0.021
	c-0.164-0.079-0.324-0.162-0.49-0.235c-0.049-0.021-0.104-0.074-0.182-0.019c0.117,0.125,0.248,0.228,0.289,0.401
	c0.041,0.18-0.051,0.292-0.232,0.257c-0.098-0.019-0.189-0.057-0.264-0.117c-0.102-0.08-0.148-0.054-0.164,0.066
	c-0.018,0.14-0.105,0.197-0.227,0.14c-0.174-0.083-0.248-0.024-0.311,0.141c-0.064,0.17-0.197,0.187-0.334,0.06
	c-0.053-0.048-0.096-0.108-0.17-0.194c-0.01,0.109-0.008,0.165-0.021,0.217c-0.016,0.066-0.063,0.129-0.131,0.075
	c-0.086-0.069-0.164-0.05-0.254-0.024c-0.07,0.02-0.148,0.034-0.207-0.03c-0.057-0.06-0.078-0.04-0.125,0.018
	c-0.094,0.114-0.227,0.147-0.35,0.064c-0.096-0.063-0.123-0.021-0.168,0.046c-0.053,0.077-0.123,0.165-0.221,0.118
	c-0.137-0.063-0.203,0.022-0.275,0.094c-0.105,0.102-0.193-0.07-0.314,0.002c-0.201,0.12-0.451,0.052-0.68,0.119
	c-0.107,0.032-0.262-0.049-0.404,0.003c-0.068,0.025-0.121-0.04-0.158-0.104c-0.018-0.032-0.047-0.101-0.068-0.08
	c-0.131,0.128-0.332,0.057-0.473,0.169c0.059,0.082,0.137,0.129,0.213,0.176c0.816,0.505,1.615,1.04,2.482,1.458
	c0.098,0.046,0.195,0.095,0.27,0.176c0.094,0.102,0.102,0.281-0.002,0.311c-0.166,0.049-0.209,0.129-0.158,0.283
	c0.004,0.01-0.004,0.022-0.006,0.033c-0.059,0.307-0.313,0.411-0.633,0.263c-0.123-0.006-0.051,0.075-0.037,0.104
	c0.064,0.131,0.098,0.264,0.084,0.412c-0.025,0.278-0.246,0.419-0.51,0.323c-0.074-0.027-0.148-0.054-0.225-0.081
	c-0.178-0.134-0.299-0.331-0.514-0.471c0.025,0.157,0.139,0.26,0.104,0.398c-0.035,0.144-0.137,0.241-0.262,0.298
	c-0.449,0.206-0.73,0.034-0.875-0.437c-0.01,0.196-0.025,0.364-0.074,0.529c-0.033,0.109-0.104,0.177-0.205,0.21
	c-0.324,0.104-0.52,0.003-0.631-0.326c-0.047-0.135-0.082-0.274-0.123-0.411c-0.059,0.163-0.076,0.323-0.098,0.482
	c-0.023,0.175-0.064,0.349-0.256,0.408c-0.32,0.1-0.646,0.03-0.707-0.377c-0.004-0.036,0.006-0.08-0.041-0.111
	c-0.018,0.01-0.037,0.019-0.055,0.032c-0.334,0.254-0.541,0.248-0.854-0.036c-0.057-0.05-0.08-0.031-0.123,0.01
	c-0.145,0.133-0.307,0.215-0.512,0.171c-0.037-0.008-0.074-0.006-0.111,0.019c-0.27,0.175-0.533,0.129-0.688-0.141
	c-0.057-0.095-0.092-0.08-0.168-0.055c-0.264,0.085-0.484,0.005-0.586-0.204c-0.063-0.128-0.059-0.262-0.043-0.4
	c0.02-0.179,0.125-0.335,0.127-0.516c0.002-0.001,0.002-0.001,0.004-0.002c0-0.001,0.002-0.003,0.004-0.005
	c0.004-0.001,0.01-0.002,0.014-0.003c-0.002-0.001-0.008-0.005-0.008-0.004c-0.002,0.002-0.004,0.004-0.006,0.007
	c-0.002,0-0.004,0.001-0.008,0.001c0,0.002,0,0.004,0,0.006c-0.115,0.088-0.225,0.185-0.348,0.262
	c-0.17,0.106-0.346,0.05-0.416-0.129c-0.025-0.07-0.066-0.096-0.135-0.108c-0.156-0.027-0.205-0.134-0.217-0.281
	c-0.012-0.134,0.061-0.233,0.125-0.34c-0.412-0.115-0.504-0.294-0.346-0.679c0.025-0.063-0.01-0.078-0.035-0.112
	c-0.127-0.164-0.088-0.317,0.105-0.387c0.24-0.085,0.482-0.171,0.73-0.238c0.795-0.214,1.576-0.477,2.355-0.742
	c0.193-0.066,0.326-0.221,0.465-0.363c0.059-0.06,0.055-0.096-0.051-0.131c-0.166-0.057-0.385-0.085-0.34-0.38
	c-0.17,0.149-0.33,0.224-0.514,0.257c-0.102,0.018-0.17-0.085-0.26-0.057c-0.135,0.042-0.23-0.007-0.328-0.086
	c-0.037-0.03-0.076-0.076-0.135-0.038c-0.146,0.094-0.271,0.024-0.398-0.044c-0.053-0.028-0.098-0.092-0.168-0.06
	c-0.121,0.057-0.191-0.009-0.256-0.097c-0.072-0.097-0.158-0.154-0.289-0.104c-0.162,0.062-0.283-0.023-0.396-0.125
	c-0.076-0.067-0.141-0.14-0.264-0.131c-0.086,0.007-0.117-0.072-0.113-0.157c0.004-0.054,0.053-0.104,0.018-0.162
	c-0.395,0.1-0.398,0.099-0.432-0.315c-0.006-0.088-0.053-0.1-0.119-0.108c-0.145-0.017-0.199-0.092-0.148-0.235
	c0.041-0.108,0.023-0.154-0.109-0.126c-0.092,0.02-0.201,0.026-0.254-0.083c-0.049-0.102,0.014-0.179,0.068-0.263
	c0.096-0.146,0.266-0.195,0.422-0.327c-0.184,0.015-0.324,0.029-0.465,0.036c-0.072,0.003-0.172,0.056-0.205-0.054
	c-0.031-0.1,0.029-0.182,0.111-0.228c0.09-0.049,0.189-0.077,0.285-0.111c0.133-0.046,0.246-0.12,0.375-0.222
	c-0.186-0.045-0.344-0.083-0.504-0.122c-0.098-0.024-0.139-0.091-0.143-0.187c-0.004-0.101,0.07-0.13,0.145-0.167
	c0.055-0.026,0.125,0.002,0.172-0.063c-0.109-0.109-0.24-0.197-0.313-0.335c-0.082-0.158-0.021-0.289,0.104-0.4
	C572.115,58.921,572.181,58.664,572.101,58.465z"/>
<path fill="#E46425" d="M64.39,33.842c0.033-0.081-0.061-0.16-0.164-0.168c-0.088-0.008-0.176-0.004-0.264-0.008
	c-0.075-0.004-0.17,0.025-0.206-0.063c-0.027-0.068,0.043-0.118,0.081-0.17c0.181-0.254,0.336-0.52,0.432-0.819
	c0.05-0.157,0.068-0.313-0.04-0.441c-0.117-0.14-0.271-0.046-0.404-0.02c-0.234,0.045-0.435,0.216-0.718,0.188
	c0.211-0.361,0.374-0.723,0.484-1.105c0.059-0.204,0.124-0.418-0.082-0.58c-0.192-0.152-0.379-0.049-0.557,0.045
	c-0.146,0.077-0.286,0.167-0.43,0.25c-0.075,0.044-0.163,0.122-0.241,0.06c-0.096-0.079-0.022-0.185,0.016-0.271
	c0.105-0.244,0.24-0.479,0.315-0.732c0.118-0.396,0.346-0.775,0.244-1.218c-0.078-0.334-0.302-0.411-0.545-0.169
	c-0.289,0.289-0.555,0.602-0.831,0.904c-0.117,0.129-0.228,0.265-0.405,0.312c-0.049-0.093-0.016-0.165,0.007-0.239
	c0.214-0.722,0.424-1.443,0.644-2.164c0.082-0.267,0.137-0.535,0.127-0.814c-0.005-0.146,0.008-0.309-0.157-0.369
	c-0.193-0.074-0.277,0.094-0.363,0.216c-0.32,0.455-0.546,0.962-0.787,1.46c-0.063,0.131-0.105,0.285-0.276,0.359
	c-0.076-0.293-0.005-0.548,0.055-0.804c0.124-0.528,0.324-1.038,0.366-1.583c0.016-0.201,0.111-0.504-0.105-0.568
	c-0.274-0.081-0.324,0.25-0.391,0.441c-0.386,1.104-0.958,2.113-1.534,3.123c-0.039,0.066-0.078,0.134-0.118,0.199
	c-0.029,0.049-0.07,0.105-0.126,0.085c-0.068-0.024-0.089-0.098-0.071-0.167c0.025-0.097,0.057-0.191,0.091-0.285
	c0.128-0.354,0.258-0.707,0.335-1.076c0.019-0.088,0.035-0.182-0.048-0.244c-0.095-0.071-0.194-0.026-0.279,0.023
	c-0.107,0.063-0.179,0.165-0.236,0.273c-0.203,0.381-0.411,0.759-0.564,1.164c-0.234,0.621-0.458,1.248-0.783,1.829
	c-0.068,0.12-0.103,0.276-0.3,0.288c0.065-0.328,0.132-0.649,0.193-0.972c0.064-0.339,0.056-0.685,0.048-1.026
	c-0.004-0.181-0.056-0.381-0.272-0.398c-0.215-0.016-0.284,0.176-0.336,0.35c-0.022,0.074-0.036,0.151-0.052,0.227
	c-0.442,2.1-0.969,4.182-1.359,6.293c-0.02,0.107-0.043,0.215-0.118,0.305c-0.421,0.5-0.512,1.086-0.437,1.713
	c0.027,0.227-0.037,0.4-0.23,0.544c-0.248,0.185-0.495,0.38-0.706,0.604c-0.249,0.265-0.538,0.317-0.874,0.286
	c-0.649-0.063-1.292-0.146-1.919-0.351c-0.458-0.149-0.932-0.292-1.432-0.179c-0.474,0.108-0.686,0.441-0.568,0.908
	c0.112,0.441,0.033,0.539-0.429,0.452c-0.532-0.101-1.055-0.247-1.586-0.353c-1.318-0.26-2.599-0.61-3.758-1.327
	c-0.287-0.178-0.623-0.283-0.961-0.354c-0.893-0.187-1.733-0.521-2.561-0.894c-0.595-0.268-1.202-0.508-1.793-0.783
	c-1.454-0.678-2.888-1.393-4.173-2.367c-0.592-0.449-1.12-0.972-1.652-1.488c-0.12-0.117-0.234-0.25-0.483-0.286
	c0.348,0.635,0.809,1.094,1.256,1.564c0.265,0.245,0.529,0.489,0.794,0.733c0.357,0.281,0.724,0.554,1.009,0.92
	c-0.427-0.195-0.803-0.468-1.165-0.762c-0.262-0.151-0.52-0.311-0.731-0.532c-0.326-0.227-0.649-0.457-0.979-0.678
	c-0.077-0.052-0.186-0.136-0.268-0.045c-0.076,0.085,0.002,0.188,0.059,0.269c0.263,0.373,0.584,0.691,0.95,0.963
	c0.698,0.521,1.398,1.04,2.098,1.559c0.179,0.049,0.29,0.16,0.338,0.363c-0.124-0.05-0.248-0.031-0.333-0.126
	c-0.387-0.158-0.771-0.321-1.162-0.472c-0.248-0.096-0.501-0.176-0.755-0.254c-0.11-0.033-0.229-0.023-0.305,0.074
	c-0.094,0.121,0.021,0.203,0.081,0.288c0.146,0.207,0.368,0.314,0.578,0.437c0.614,0.355,1.271,0.623,1.907,0.936
	c0.054,0.027,0.149,0.039,0.125,0.112c-0.041,0.126-0.114,0.02-0.179,0.007c-0.425-0.08-0.853-0.143-1.286-0.126
	c-0.198,0.008-0.447,0.009-0.485,0.253c-0.039,0.247,0.225,0.268,0.387,0.336c0.459,0.193,0.951,0.303,1.443,0.545
	c-0.182,0.021-0.313,0.033-0.444,0.053c-0.328,0.048-0.662,0.075-0.959,0.242c-0.078,0.043-0.163,0.09-0.146,0.198
	c0.014,0.093,0.069,0.163,0.164,0.189c0.16,0.045,0.318,0.101,0.482,0.126c0.364,0.06,0.731,0.104,1.194,0.167
	c-0.289,0.146-0.49,0.245-0.689,0.349c-0.058,0.03-0.122,0.068-0.113,0.148c0.008,0.078,0.074,0.105,0.141,0.119
	c0.489,0.093,0.901,0.491,1.464,0.32c-0.159,0.396-0.063,0.555,0.344,0.628c0.431,0.077,0.87,0.065,1.333,0.085
	c-0.093,0.149-0.226,0.154-0.323,0.217c-0.129,0.083-0.321,0.16-0.279,0.326c0.049,0.189,0.26,0.238,0.44,0.217
	c0.274-0.031,0.544-0.098,0.816-0.148c0.312-0.059,0.623-0.116,1.012-0.188c-0.345,0.345-0.643,0.588-0.972,0.796
	c-0.131,0.083-0.263,0.171-0.37,0.279c-0.115,0.117-0.226,0.259-0.096,0.437c0.121,0.165,0.271,0.111,0.416,0.043
	c0.319-0.153,0.634-0.316,0.958-0.459c0.093-0.041,0.199-0.143,0.349-0.036c-0.228,0.244-0.483,0.444-0.56,0.78
	c-0.08,0.351,0.1,0.569,0.455,0.5c0.185-0.036,0.364-0.109,0.512-0.229c0.195-0.154,0.287-0.105,0.317,0.129
	c0.035,0.271,0.208,0.385,0.442,0.272c0.339-0.162,0.48-0.048,0.602,0.274c0.125,0.33,0.384,0.363,0.651,0.115
	c0.102-0.095,0.184-0.21,0.329-0.379c0.02,0.214,0.017,0.322,0.042,0.424c0.032,0.129,0.125,0.25,0.255,0.146
	c0.17-0.135,0.32-0.097,0.495-0.047c0.138,0.039,0.29,0.066,0.404-0.059c0.107-0.117,0.15-0.077,0.241,0.035
	c0.181,0.222,0.441,0.285,0.681,0.125c0.184-0.123,0.238-0.042,0.327,0.09c0.101,0.149,0.237,0.32,0.43,0.23
	c0.264-0.124,0.392,0.043,0.536,0.183c0.204,0.199,0.377-0.136,0.612,0.004c0.394,0.233,0.88,0.101,1.323,0.23
	c0.21,0.062,0.509-0.095,0.786,0.007c0.132,0.049,0.238-0.078,0.308-0.203c0.035-0.062,0.092-0.195,0.134-0.154
	c0.256,0.25,0.647,0.109,0.918,0.328c-0.114,0.158-0.265,0.251-0.413,0.343c-1.588,0.984-3.144,2.024-4.833,2.838
	c-0.188,0.091-0.379,0.185-0.524,0.344c-0.18,0.198-0.197,0.546,0.003,0.604c0.326,0.096,0.407,0.253,0.308,0.551
	c-0.006,0.019,0.007,0.043,0.012,0.064c0.116,0.596,0.609,0.801,1.232,0.512c0.241-0.012,0.101,0.145,0.071,0.203
	c-0.126,0.254-0.188,0.514-0.161,0.801c0.05,0.541,0.476,0.816,0.992,0.628c0.145-0.053,0.289-0.104,0.434-0.157
	c0.347-0.26,0.584-0.645,1.001-0.918c-0.051,0.307-0.27,0.508-0.202,0.776c0.071,0.28,0.268,0.47,0.51,0.58
	c0.873,0.399,1.424,0.067,1.701-0.849c0.021,0.381,0.051,0.708,0.147,1.028c0.064,0.212,0.2,0.345,0.398,0.408
	c0.635,0.202,1.012,0.007,1.229-0.634c0.089-0.264,0.159-0.533,0.238-0.8c0.113,0.315,0.149,0.627,0.19,0.938
	c0.045,0.34,0.122,0.679,0.497,0.795c0.625,0.192,1.259,0.058,1.375-0.733c0.01-0.07-0.009-0.156,0.081-0.217
	c0.033,0.02,0.072,0.037,0.105,0.063c0.651,0.494,1.053,0.481,1.662-0.07c0.107-0.099,0.155-0.061,0.24,0.019
	c0.279,0.259,0.596,0.418,0.993,0.334c0.076-0.017,0.146-0.012,0.22,0.036c0.525,0.341,1.039,0.252,1.338-0.273
	c0.106-0.187,0.176-0.156,0.326-0.108c0.513,0.165,0.941,0.011,1.14-0.396c0.122-0.249,0.115-0.51,0.084-0.779
	c-0.039-0.347-0.243-0.651-0.249-1.005c-0.002-0.001-0.003-0.002-0.005-0.004c-0.003-0.003-0.006-0.006-0.008-0.01
	c-0.009-0.002-0.019-0.004-0.028-0.006c0.006-0.004,0.015-0.01,0.017-0.008c0.004,0.004,0.008,0.009,0.011,0.014
	c0.004,0,0.008,0.002,0.013,0.002c0,0.005,0.001,0.008,0.001,0.012c0.224,0.172,0.438,0.361,0.676,0.511
	c0.33,0.208,0.672,0.099,0.809-0.252c0.053-0.136,0.131-0.187,0.262-0.21c0.304-0.053,0.402-0.261,0.425-0.547
	c0.02-0.261-0.122-0.454-0.243-0.661c0.8-0.225,0.976-0.573,0.67-1.322c-0.05-0.12,0.018-0.151,0.07-0.218
	c0.247-0.319,0.17-0.618-0.209-0.754c-0.468-0.167-0.938-0.334-1.417-0.463c-1.55-0.417-3.069-0.929-4.587-1.444
	c-0.377-0.128-0.636-0.431-0.903-0.707c-0.114-0.118-0.104-0.187,0.097-0.255c0.323-0.11,0.75-0.166,0.662-0.74
	c0.33,0.289,0.643,0.436,1,0.5c0.195,0.035,0.331-0.166,0.504-0.11c0.259,0.081,0.449-0.014,0.638-0.168
	c0.073-0.06,0.151-0.147,0.264-0.075c0.283,0.184,0.526,0.047,0.774-0.086c0.103-0.055,0.192-0.179,0.327-0.116
	c0.237,0.109,0.372-0.019,0.499-0.188c0.142-0.188,0.306-0.301,0.562-0.203c0.315,0.121,0.554-0.045,0.775-0.243
	c0.146-0.132,0.272-0.272,0.511-0.255c0.169,0.012,0.228-0.141,0.22-0.305c-0.005-0.105-0.102-0.203-0.033-0.315
	c0.769,0.194,0.777,0.192,0.839-0.612c0.013-0.172,0.103-0.195,0.232-0.211c0.281-0.033,0.391-0.179,0.29-0.457
	c-0.077-0.21-0.046-0.301,0.213-0.245c0.178,0.038,0.394,0.051,0.496-0.161c0.095-0.199-0.024-0.349-0.133-0.513
	c-0.188-0.284-0.518-0.379-0.821-0.636c0.356,0.029,0.631,0.058,0.906,0.07c0.14,0.006,0.332,0.107,0.397-0.105
	c0.06-0.194-0.059-0.354-0.218-0.443c-0.172-0.096-0.367-0.149-0.555-0.215c-0.259-0.09-0.48-0.234-0.729-0.434
	c0.361-0.087,0.669-0.162,0.979-0.236c0.19-0.047,0.271-0.177,0.278-0.363c0.008-0.196-0.139-0.254-0.28-0.324
	c-0.104-0.051-0.245,0.004-0.335-0.121c0.215-0.213,0.47-0.383,0.61-0.653c0.16-0.308,0.04-0.563-0.204-0.778
	C64.362,34.729,64.233,34.229,64.39,33.842z"/>
<path fill="#E46425" d="M209.437,20.393c0.017-0.041-0.03-0.08-0.082-0.083c-0.044-0.004-0.088-0.002-0.131-0.004
	c-0.038-0.001-0.085,0.013-0.103-0.031c-0.014-0.034,0.022-0.059,0.041-0.085c0.09-0.126,0.168-0.259,0.215-0.409
	c0.025-0.079,0.034-0.156-0.02-0.22c-0.058-0.07-0.135-0.023-0.201-0.01c-0.117,0.022-0.217,0.107-0.358,0.094
	c0.105-0.18,0.187-0.36,0.242-0.551c0.029-0.102,0.062-0.209-0.041-0.29c-0.096-0.076-0.189-0.024-0.278,0.023
	c-0.073,0.038-0.143,0.083-0.215,0.125c-0.037,0.022-0.081,0.061-0.12,0.03c-0.048-0.04-0.011-0.092,0.008-0.136
	c0.053-0.122,0.12-0.239,0.157-0.366c0.059-0.198,0.173-0.387,0.122-0.607c-0.039-0.167-0.151-0.206-0.272-0.084
	c-0.145,0.145-0.277,0.3-0.415,0.452c-0.058,0.064-0.113,0.132-0.202,0.155c-0.024-0.047-0.008-0.083,0.003-0.12
	c0.107-0.36,0.212-0.72,0.322-1.08c0.041-0.133,0.068-0.267,0.063-0.406c-0.002-0.073,0.004-0.154-0.078-0.184
	c-0.097-0.037-0.139,0.047-0.182,0.108c-0.159,0.227-0.272,0.479-0.393,0.729c-0.031,0.065-0.052,0.142-0.137,0.179
	c-0.038-0.146-0.002-0.273,0.027-0.401c0.062-0.264,0.162-0.518,0.183-0.79c0.008-0.1,0.055-0.251-0.052-0.284
	c-0.137-0.041-0.162,0.125-0.195,0.22c-0.192,0.551-0.478,1.054-0.766,1.559c-0.02,0.033-0.039,0.066-0.059,0.099
	c-0.015,0.024-0.035,0.053-0.063,0.042c-0.034-0.012-0.044-0.049-0.036-0.083c0.013-0.048,0.028-0.095,0.045-0.142
	c0.064-0.177,0.129-0.353,0.167-0.537c0.009-0.044,0.018-0.091-0.024-0.122c-0.048-0.036-0.097-0.013-0.14,0.012
	c-0.054,0.031-0.089,0.083-0.118,0.136c-0.101,0.19-0.205,0.379-0.281,0.581c-0.117,0.311-0.229,0.623-0.391,0.913
	c-0.034,0.06-0.051,0.138-0.15,0.144c0.033-0.164,0.066-0.324,0.097-0.485c0.032-0.169,0.028-0.341,0.024-0.512
	c-0.002-0.09-0.028-0.19-0.136-0.199c-0.107-0.008-0.142,0.088-0.168,0.175c-0.011,0.037-0.018,0.075-0.025,0.113
	c-0.221,1.048-0.483,2.086-0.678,3.14c-0.01,0.053-0.021,0.107-0.059,0.152c-0.21,0.25-0.255,0.542-0.218,0.854
	c0.013,0.113-0.019,0.2-0.115,0.271c-0.124,0.092-0.247,0.189-0.352,0.301c-0.124,0.132-0.269,0.158-0.436,0.143
	c-0.324-0.031-0.645-0.072-0.958-0.175c-0.228-0.075-0.465-0.146-0.714-0.089c-0.236,0.054-0.342,0.22-0.284,0.453
	c0.056,0.22,0.017,0.269-0.214,0.226c-0.266-0.05-0.526-0.124-0.792-0.176c-0.657-0.129-1.296-0.305-1.875-0.662
	c-0.144-0.088-0.311-0.141-0.479-0.177c-0.445-0.093-0.865-0.26-1.278-0.446c-0.297-0.134-0.6-0.253-0.895-0.391
	c-0.725-0.338-1.441-0.694-2.082-1.181c-0.295-0.224-0.559-0.484-0.824-0.742c-0.06-0.059-0.117-0.125-0.241-0.143
	c0.173,0.317,0.403,0.546,0.626,0.781c0.132,0.122,0.264,0.244,0.396,0.366c0.178,0.141,0.361,0.276,0.503,0.459
	c-0.213-0.097-0.4-0.233-0.581-0.38c-0.13-0.075-0.259-0.155-0.365-0.266c-0.163-0.113-0.324-0.228-0.489-0.338
	c-0.038-0.025-0.093-0.067-0.133-0.022c-0.039,0.042,0.001,0.094,0.029,0.134c0.131,0.186,0.292,0.345,0.474,0.48
	c0.349,0.26,0.698,0.519,1.047,0.777c0.089,0.025,0.145,0.081,0.168,0.182c-0.062-0.025-0.124-0.016-0.166-0.063
	c-0.194-0.079-0.385-0.16-0.58-0.235c-0.123-0.048-0.25-0.088-0.376-0.127c-0.055-0.016-0.114-0.011-0.152,0.038
	c-0.047,0.061,0.01,0.101,0.04,0.144c0.072,0.103,0.184,0.157,0.289,0.218c0.306,0.177,0.634,0.311,0.952,0.467
	c0.027,0.014,0.074,0.02,0.062,0.056c-0.021,0.063-0.057,0.01-0.089,0.003c-0.212-0.04-0.426-0.071-0.642-0.063
	c-0.098,0.004-0.223,0.004-0.242,0.126c-0.019,0.124,0.113,0.134,0.193,0.168c0.229,0.096,0.475,0.151,0.72,0.272
	c-0.091,0.01-0.156,0.017-0.221,0.026c-0.164,0.024-0.331,0.038-0.479,0.121c-0.039,0.021-0.081,0.045-0.073,0.099
	c0.007,0.046,0.035,0.081,0.082,0.095c0.08,0.022,0.159,0.05,0.241,0.063c0.182,0.03,0.364,0.052,0.596,0.083
	c-0.145,0.073-0.245,0.123-0.344,0.174c-0.028,0.015-0.061,0.034-0.056,0.074c0.004,0.039,0.037,0.053,0.07,0.059
	c0.244,0.046,0.449,0.245,0.73,0.16c-0.079,0.198-0.031,0.277,0.171,0.313c0.215,0.039,0.434,0.033,0.665,0.042
	c-0.046,0.075-0.112,0.077-0.162,0.108c-0.064,0.042-0.16,0.081-0.139,0.163c0.024,0.094,0.129,0.119,0.219,0.108
	c0.137-0.016,0.272-0.049,0.408-0.075c0.155-0.029,0.311-0.058,0.505-0.093c-0.172,0.172-0.321,0.293-0.485,0.397
	c-0.065,0.041-0.131,0.085-0.185,0.139c-0.057,0.058-0.113,0.129-0.048,0.218c0.06,0.082,0.135,0.056,0.208,0.021
	c0.159-0.077,0.316-0.158,0.478-0.229c0.047-0.021,0.099-0.071,0.174-0.018c-0.113,0.122-0.241,0.222-0.279,0.389
	c-0.04,0.175,0.05,0.284,0.227,0.25c0.093-0.018,0.182-0.055,0.256-0.114c0.097-0.077,0.143-0.053,0.158,0.064
	c0.017,0.136,0.104,0.192,0.22,0.136c0.169-0.081,0.24-0.024,0.301,0.137c0.062,0.165,0.191,0.181,0.325,0.058
	c0.051-0.047,0.091-0.104,0.164-0.189c0.01,0.106,0.008,0.161,0.021,0.211c0.016,0.064,0.063,0.125,0.127,0.073
	c0.084-0.067,0.159-0.048,0.247-0.023c0.069,0.019,0.145,0.033,0.202-0.029c0.054-0.059,0.075-0.039,0.12,0.017
	c0.09,0.111,0.221,0.143,0.34,0.063c0.091-0.061,0.119-0.021,0.163,0.045c0.051,0.075,0.119,0.16,0.215,0.115
	c0.132-0.062,0.195,0.021,0.268,0.091c0.102,0.1,0.188-0.067,0.306,0.002c0.196,0.117,0.439,0.05,0.66,0.115
	c0.105,0.031,0.254-0.047,0.392,0.003c0.066,0.024,0.119-0.039,0.154-0.102c0.017-0.03,0.045-0.097,0.067-0.077
	c0.127,0.125,0.323,0.055,0.458,0.164c-0.057,0.079-0.132,0.125-0.206,0.171c-0.792,0.491-1.569,1.01-2.412,1.416
	c-0.093,0.045-0.189,0.092-0.261,0.172c-0.09,0.099-0.099,0.272,0.001,0.301c0.163,0.048,0.203,0.126,0.153,0.275
	c-0.003,0.009,0.004,0.021,0.006,0.032c0.058,0.297,0.304,0.399,0.615,0.255c0.121-0.006,0.05,0.072,0.035,0.102
	c-0.063,0.126-0.093,0.256-0.08,0.399c0.025,0.27,0.237,0.407,0.495,0.313c0.072-0.026,0.144-0.052,0.216-0.078
	c0.173-0.13,0.292-0.322,0.5-0.458c-0.025,0.153-0.135,0.253-0.101,0.387c0.035,0.14,0.133,0.234,0.254,0.29
	c0.435,0.199,0.71,0.034,0.849-0.423c0.01,0.189,0.025,0.353,0.073,0.513c0.032,0.105,0.1,0.172,0.199,0.204
	c0.317,0.101,0.504,0.003,0.613-0.316c0.044-0.132,0.08-0.266,0.119-0.399c0.057,0.157,0.075,0.313,0.095,0.467
	c0.022,0.17,0.061,0.339,0.248,0.397c0.312,0.096,0.628,0.029,0.686-0.366c0.005-0.035-0.004-0.078,0.041-0.108
	c0.017,0.01,0.036,0.019,0.052,0.031c0.325,0.247,0.525,0.24,0.829-0.035c0.054-0.049,0.077-0.03,0.12,0.009
	c0.139,0.129,0.297,0.208,0.495,0.167c0.038-0.008,0.073-0.006,0.109,0.018c0.262,0.17,0.519,0.126,0.668-0.136
	c0.053-0.093,0.088-0.078,0.163-0.054c0.255,0.082,0.469,0.005,0.568-0.198c0.061-0.125,0.057-0.254,0.042-0.389
	c-0.019-0.173-0.121-0.325-0.124-0.501c-0.001,0-0.002-0.001-0.003-0.002c-0.001-0.001-0.002-0.003-0.004-0.005
	c-0.005,0-0.009-0.002-0.014-0.002c0.003-0.002,0.007-0.005,0.008-0.004c0.002,0.001,0.004,0.004,0.005,0.006
	c0.002,0,0.004,0.001,0.006,0.001c0,0.003,0,0.004,0,0.006c0.112,0.085,0.218,0.18,0.337,0.254c0.165,0.104,0.335,0.05,0.404-0.125
	c0.026-0.068,0.065-0.093,0.13-0.105c0.152-0.026,0.201-0.13,0.212-0.272c0.01-0.13-0.061-0.227-0.121-0.33
	c0.398-0.112,0.487-0.286,0.334-0.66c-0.025-0.06,0.009-0.076,0.035-0.108c0.123-0.16,0.085-0.309-0.104-0.376
	c-0.233-0.083-0.468-0.167-0.708-0.231c-0.773-0.208-1.531-0.463-2.289-0.721c-0.188-0.064-0.317-0.215-0.45-0.353
	c-0.057-0.059-0.053-0.093,0.048-0.127c0.161-0.055,0.374-0.083,0.33-0.369c0.165,0.144,0.32,0.217,0.499,0.249
	c0.098,0.018,0.165-0.083,0.252-0.055c0.129,0.041,0.224-0.007,0.318-0.084c0.036-0.03,0.075-0.074,0.131-0.038
	c0.141,0.092,0.262,0.023,0.386-0.042c0.051-0.028,0.096-0.089,0.163-0.058c0.118,0.055,0.185-0.009,0.249-0.094
	c0.071-0.094,0.153-0.15,0.28-0.101c0.157,0.06,0.276-0.023,0.387-0.122c0.073-0.066,0.136-0.136,0.255-0.127
	c0.084,0.005,0.114-0.07,0.11-0.152c-0.002-0.053-0.051-0.102-0.017-0.157c0.384,0.097,0.388,0.096,0.418-0.306
	c0.007-0.085,0.051-0.098,0.116-0.105c0.14-0.016,0.195-0.089,0.145-0.228c-0.038-0.104-0.023-0.15,0.106-0.122
	c0.089,0.019,0.196,0.025,0.247-0.08c0.047-0.1-0.012-0.174-0.067-0.256c-0.093-0.142-0.258-0.189-0.409-0.317
	c0.178,0.015,0.314,0.029,0.452,0.035c0.07,0.003,0.166,0.053,0.198-0.053c0.03-0.097-0.029-0.177-0.109-0.221
	c-0.085-0.048-0.183-0.075-0.277-0.107c-0.129-0.045-0.24-0.117-0.364-0.216c0.18-0.043,0.334-0.081,0.488-0.118
	c0.095-0.023,0.135-0.088,0.139-0.181c0.004-0.098-0.069-0.127-0.14-0.162c-0.052-0.025-0.122,0.002-0.167-0.06
	c0.107-0.106,0.234-0.191,0.304-0.326c0.08-0.153,0.02-0.281-0.102-0.389C209.423,20.835,209.358,20.585,209.437,20.393z"/>
<path fill="#E46425" d="M245.446,92.023c0.024-0.06-0.045-0.119-0.121-0.124c-0.065-0.007-0.13-0.004-0.194-0.007
	c-0.056-0.002-0.126,0.019-0.153-0.045c-0.02-0.051,0.033-0.087,0.06-0.126c0.134-0.188,0.249-0.384,0.319-0.605
	c0.038-0.116,0.05-0.23-0.03-0.326c-0.086-0.104-0.2-0.035-0.298-0.015c-0.173,0.033-0.321,0.159-0.531,0.139
	c0.156-0.267,0.276-0.534,0.358-0.817c0.043-0.151,0.092-0.31-0.061-0.43c-0.142-0.112-0.28-0.035-0.412,0.034
	c-0.108,0.056-0.211,0.123-0.318,0.185c-0.055,0.032-0.12,0.09-0.177,0.044c-0.071-0.059-0.017-0.136,0.012-0.201
	c0.078-0.181,0.177-0.354,0.233-0.542c0.087-0.293,0.256-0.573,0.18-0.9c-0.057-0.247-0.224-0.304-0.403-0.125
	c-0.214,0.214-0.41,0.445-0.614,0.669c-0.086,0.095-0.168,0.195-0.299,0.23c-0.036-0.07-0.012-0.123,0.004-0.177
	c0.158-0.533,0.314-1.066,0.477-1.601c0.06-0.197,0.101-0.395,0.093-0.602c-0.003-0.108,0.006-0.228-0.115-0.273
	c-0.144-0.055-0.206,0.069-0.27,0.16c-0.236,0.335-0.403,0.71-0.582,1.079c-0.045,0.096-0.077,0.21-0.203,0.266
	c-0.056-0.216-0.003-0.405,0.041-0.594c0.091-0.391,0.239-0.768,0.271-1.171c0.012-0.148,0.082-0.373-0.077-0.42
	c-0.204-0.06-0.24,0.185-0.29,0.326c-0.285,0.816-0.708,1.562-1.134,2.309c-0.029,0.048-0.057,0.098-0.087,0.147
	c-0.022,0.036-0.052,0.078-0.094,0.063c-0.05-0.019-0.065-0.073-0.053-0.124c0.019-0.071,0.042-0.141,0.067-0.21
	c0.096-0.262,0.191-0.523,0.248-0.795c0.014-0.066,0.026-0.135-0.035-0.181c-0.071-0.053-0.144-0.02-0.207,0.018
	c-0.08,0.046-0.132,0.122-0.174,0.202c-0.15,0.282-0.304,0.562-0.417,0.86c-0.173,0.46-0.338,0.923-0.579,1.353
	c-0.05,0.088-0.076,0.204-0.222,0.213c0.048-0.242,0.098-0.48,0.143-0.718c0.048-0.25,0.042-0.506,0.036-0.759
	c-0.003-0.133-0.041-0.282-0.202-0.294c-0.159-0.012-0.21,0.13-0.249,0.259c-0.016,0.054-0.026,0.111-0.038,0.167
	c-0.327,1.553-0.716,3.091-1.005,4.652c-0.015,0.079-0.032,0.159-0.087,0.225c-0.311,0.37-0.377,0.803-0.323,1.266
	c0.02,0.167-0.027,0.295-0.17,0.402c-0.184,0.137-0.365,0.281-0.521,0.446c-0.184,0.195-0.398,0.234-0.646,0.211
	c-0.48-0.046-0.955-0.107-1.419-0.259c-0.338-0.111-0.688-0.216-1.058-0.133c-0.35,0.081-0.507,0.327-0.42,0.671
	c0.083,0.327,0.024,0.399-0.317,0.335c-0.394-0.074-0.78-0.183-1.172-0.26c-0.974-0.192-1.921-0.452-2.778-0.981
	c-0.212-0.131-0.46-0.209-0.71-0.262c-0.66-0.138-1.281-0.385-1.894-0.661c-0.439-0.198-0.888-0.375-1.326-0.58
	c-1.074-0.5-2.135-1.028-3.085-1.75c-0.437-0.331-0.828-0.717-1.221-1.099c-0.088-0.087-0.173-0.186-0.357-0.212
	c0.257,0.47,0.598,0.809,0.928,1.157c0.195,0.181,0.391,0.362,0.587,0.542c0.264,0.208,0.535,0.41,0.745,0.68
	c-0.315-0.144-0.593-0.345-0.861-0.563c-0.193-0.111-0.383-0.229-0.541-0.394c-0.241-0.168-0.479-0.338-0.724-0.501
	c-0.056-0.038-0.137-0.1-0.197-0.032c-0.057,0.062,0.001,0.139,0.043,0.198c0.194,0.275,0.432,0.511,0.702,0.712
	c0.517,0.385,1.034,0.769,1.551,1.151c0.132,0.037,0.214,0.12,0.25,0.269c-0.091-0.037-0.183-0.023-0.245-0.093
	c-0.288-0.116-0.571-0.237-0.86-0.349c-0.182-0.071-0.37-0.13-0.558-0.188c-0.081-0.024-0.168-0.017-0.225,0.056
	c-0.07,0.09,0.016,0.15,0.06,0.213c0.107,0.152,0.272,0.233,0.428,0.322c0.453,0.263,0.939,0.461,1.41,0.692
	c0.04,0.02,0.11,0.029,0.092,0.083c-0.03,0.093-0.084,0.015-0.132,0.005c-0.314-0.059-0.631-0.105-0.951-0.093
	c-0.146,0.006-0.33,0.007-0.359,0.187c-0.028,0.183,0.167,0.198,0.287,0.249c0.339,0.143,0.703,0.224,1.066,0.403
	c-0.134,0.015-0.231,0.025-0.328,0.039c-0.243,0.036-0.49,0.056-0.71,0.179c-0.057,0.032-0.12,0.067-0.107,0.147
	c0.011,0.069,0.051,0.12,0.122,0.14c0.118,0.033,0.235,0.074,0.356,0.093c0.269,0.044,0.54,0.077,0.883,0.123
	c-0.214,0.108-0.363,0.182-0.51,0.258c-0.042,0.022-0.09,0.05-0.083,0.11c0.006,0.057,0.055,0.078,0.104,0.087
	c0.362,0.069,0.666,0.363,1.082,0.237c-0.117,0.293-0.046,0.411,0.254,0.464c0.318,0.057,0.643,0.048,0.985,0.063
	c-0.068,0.111-0.167,0.113-0.239,0.16c-0.095,0.063-0.237,0.12-0.206,0.242c0.036,0.14,0.192,0.177,0.325,0.161
	c0.204-0.023,0.403-0.072,0.604-0.111c0.23-0.042,0.46-0.085,0.748-0.137c-0.255,0.254-0.475,0.434-0.718,0.588
	c-0.097,0.061-0.194,0.126-0.273,0.207c-0.084,0.086-0.167,0.191-0.071,0.322c0.089,0.122,0.2,0.083,0.308,0.032
	c0.236-0.114,0.469-0.234,0.708-0.339c0.069-0.031,0.147-0.105,0.258-0.027c-0.168,0.18-0.357,0.328-0.414,0.577
	c-0.059,0.259,0.074,0.421,0.336,0.37c0.137-0.026,0.269-0.081,0.379-0.168c0.144-0.115,0.211-0.078,0.234,0.095
	c0.025,0.201,0.153,0.284,0.326,0.202c0.251-0.12,0.355-0.036,0.446,0.203c0.092,0.244,0.284,0.268,0.481,0.085
	c0.075-0.07,0.135-0.155,0.243-0.28c0.015,0.158,0.012,0.238,0.031,0.313c0.023,0.095,0.092,0.185,0.188,0.108
	c0.125-0.1,0.236-0.072,0.366-0.035c0.102,0.028,0.215,0.048,0.298-0.043c0.08-0.087,0.112-0.057,0.178,0.025
	c0.134,0.164,0.327,0.212,0.504,0.092c0.135-0.09,0.176-0.03,0.241,0.067c0.075,0.11,0.176,0.236,0.318,0.17
	c0.195-0.092,0.289,0.031,0.396,0.135c0.15,0.147,0.278-0.1,0.453,0.003c0.29,0.173,0.65,0.075,0.978,0.171
	c0.155,0.045,0.377-0.07,0.581,0.005c0.099,0.036,0.176-0.058,0.228-0.15c0.025-0.045,0.067-0.144,0.099-0.114
	c0.189,0.185,0.478,0.081,0.679,0.242c-0.084,0.117-0.196,0.186-0.305,0.253c-1.174,0.728-2.324,1.497-3.574,2.098
	c-0.138,0.067-0.28,0.137-0.386,0.255c-0.134,0.146-0.147,0.403,0.002,0.446c0.241,0.071,0.301,0.188,0.227,0.407
	c-0.004,0.014,0.006,0.032,0.009,0.048c0.085,0.44,0.45,0.592,0.911,0.378c0.179-0.009,0.075,0.106,0.052,0.15
	c-0.093,0.188-0.138,0.379-0.118,0.592c0.037,0.4,0.352,0.603,0.733,0.464c0.107-0.039,0.213-0.077,0.321-0.116
	c0.256-0.193,0.432-0.477,0.74-0.679c-0.038,0.227-0.2,0.375-0.149,0.574c0.052,0.207,0.197,0.347,0.377,0.429
	c0.645,0.295,1.052,0.05,1.257-0.627c0.015,0.281,0.037,0.523,0.108,0.76c0.047,0.156,0.147,0.254,0.294,0.302
	c0.47,0.149,0.747,0.004,0.909-0.469c0.066-0.195,0.118-0.396,0.176-0.591c0.084,0.233,0.11,0.463,0.141,0.692
	c0.033,0.252,0.09,0.502,0.367,0.588c0.462,0.142,0.931,0.042,1.016-0.543c0.008-0.051-0.006-0.115,0.06-0.16
	c0.025,0.015,0.054,0.027,0.078,0.046c0.482,0.365,0.778,0.356,1.229-0.052c0.079-0.073,0.114-0.045,0.178,0.014
	c0.206,0.191,0.44,0.309,0.733,0.247c0.057-0.012,0.108-0.008,0.162,0.027c0.389,0.252,0.769,0.187,0.99-0.202
	c0.078-0.138,0.13-0.116,0.242-0.081c0.378,0.122,0.695,0.008,0.842-0.293c0.09-0.184,0.085-0.376,0.063-0.576
	c-0.028-0.256-0.18-0.481-0.184-0.742c-0.001-0.001-0.003-0.002-0.004-0.003c-0.001-0.002-0.003-0.004-0.005-0.008
	c-0.007,0-0.014-0.003-0.021-0.003c0.004-0.003,0.011-0.008,0.012-0.006c0.004,0.002,0.006,0.006,0.008,0.009
	c0.002,0,0.005,0.001,0.009,0.001c0,0.004,0,0.007,0,0.01c0.166,0.126,0.324,0.267,0.5,0.376c0.244,0.154,0.496,0.074,0.598-0.186
	c0.039-0.101,0.096-0.138,0.193-0.156c0.225-0.038,0.297-0.192,0.314-0.404c0.015-0.193-0.089-0.335-0.179-0.489
	c0.59-0.166,0.721-0.424,0.495-0.978c-0.037-0.089,0.013-0.112,0.052-0.161c0.182-0.236,0.126-0.457-0.155-0.558
	c-0.346-0.124-0.694-0.247-1.048-0.342c-1.146-0.308-2.269-0.687-3.391-1.067c-0.279-0.095-0.47-0.318-0.667-0.523
	c-0.085-0.087-0.078-0.138,0.071-0.188c0.238-0.082,0.554-0.123,0.489-0.547c0.244,0.213,0.475,0.322,0.739,0.369
	c0.145,0.026,0.245-0.122,0.374-0.081c0.191,0.061,0.331-0.01,0.471-0.125c0.053-0.044,0.111-0.109,0.195-0.056
	c0.209,0.136,0.389,0.035,0.572-0.063c0.076-0.041,0.143-0.132,0.242-0.086c0.175,0.081,0.274-0.014,0.368-0.14
	c0.105-0.14,0.227-0.223,0.415-0.15c0.233,0.089,0.41-0.034,0.573-0.18c0.108-0.098,0.202-0.201,0.377-0.188
	c0.125,0.008,0.168-0.104,0.163-0.226c-0.003-0.078-0.075-0.15-0.024-0.233c0.568,0.143,0.574,0.143,0.62-0.453
	c0.01-0.126,0.076-0.145,0.172-0.156c0.208-0.024,0.289-0.131,0.214-0.337c-0.057-0.155-0.034-0.222,0.158-0.181
	c0.131,0.028,0.29,0.038,0.366-0.119c0.07-0.147-0.018-0.258-0.099-0.379c-0.137-0.21-0.382-0.28-0.606-0.47
	c0.263,0.021,0.466,0.042,0.67,0.052c0.104,0.004,0.245,0.079,0.293-0.078c0.044-0.144-0.043-0.262-0.161-0.328
	c-0.126-0.071-0.271-0.11-0.41-0.159c-0.192-0.066-0.355-0.173-0.539-0.319c0.267-0.064,0.496-0.12,0.724-0.175
	c0.14-0.035,0.2-0.131,0.206-0.269c0.006-0.145-0.103-0.188-0.207-0.24c-0.077-0.038-0.181,0.002-0.247-0.089
	c0.158-0.158,0.347-0.283,0.451-0.483c0.118-0.228,0.029-0.416-0.151-0.576C245.425,92.68,245.33,92.309,245.446,92.023z"/>
<rect y="108.145" fill="none" width="642.695" height="128.164"/>
</svg>
